(kicad_pcb (version 4) (host pcbnew 4.0.4-stable)

  (general
    (links 53)
    (no_connects 0)
    (area 55.296999 67.742999 108.533001 138.251001)
    (thickness 1.6)
    (drawings 4)
    (tracks 229)
    (zones 0)
    (modules 30)
    (nets 22)
  )

  (page A4)
  (layers
    (0 F.Cu signal)
    (31 B.Cu signal hide)
    (32 B.Adhes user)
    (33 F.Adhes user)
    (34 B.Paste user)
    (35 F.Paste user)
    (36 B.SilkS user)
    (37 F.SilkS user)
    (38 B.Mask user hide)
    (39 F.Mask user hide)
    (40 Dwgs.User user hide)
    (41 Cmts.User user hide)
    (42 Eco1.User user hide)
    (43 Eco2.User user hide)
    (44 Edge.Cuts user)
    (45 Margin user hide)
    (46 B.CrtYd user)
    (47 F.CrtYd user)
    (48 B.Fab user)
    (49 F.Fab user)
  )

  (setup
    (last_trace_width 0.8)
    (trace_clearance 0.3)
    (zone_clearance 0.508)
    (zone_45_only no)
    (trace_min 0.2)
    (segment_width 0.2)
    (edge_width 0.15)
    (via_size 0.6)
    (via_drill 0.4)
    (via_min_size 0.4)
    (via_min_drill 0.3)
    (uvia_size 0.3)
    (uvia_drill 0.1)
    (uvias_allowed no)
    (uvia_min_size 0.2)
    (uvia_min_drill 0.1)
    (pcb_text_width 0.3)
    (pcb_text_size 1.5 1.5)
    (mod_edge_width 0.15)
    (mod_text_size 1 1)
    (mod_text_width 0.15)
    (pad_size 1.8 1.8)
    (pad_drill 0.8)
    (pad_to_mask_clearance 0.2)
    (aux_axis_origin 0 0)
    (visible_elements 7FFFFFFF)
    (pcbplotparams
      (layerselection 0x00030_80000001)
      (usegerberextensions false)
      (excludeedgelayer true)
      (linewidth 0.100000)
      (plotframeref false)
      (viasonmask false)
      (mode 1)
      (useauxorigin false)
      (hpglpennumber 1)
      (hpglpenspeed 20)
      (hpglpendiameter 15)
      (hpglpenoverlay 2)
      (psnegative false)
      (psa4output false)
      (plotreference true)
      (plotvalue true)
      (plotinvisibletext false)
      (padsonsilk false)
      (subtractmaskfromsilk false)
      (outputformat 1)
      (mirror false)
      (drillshape 1)
      (scaleselection 1)
      (outputdirectory ""))
  )

  (net 0 "")
  (net 1 GND)
  (net 2 +3V3)
  (net 3 "Net-(F1-Pad1)")
  (net 4 "Net-(F1-Pad2)")
  (net 5 "Net-(F2-Pad1)")
  (net 6 "Net-(F2-Pad2)")
  (net 7 "Net-(F3-Pad1)")
  (net 8 "Net-(F3-Pad2)")
  (net 9 "Net-(JP1-Pad2)")
  (net 10 "Net-(JP2-Pad1)")
  (net 11 "Net-(P2-Pad2)")
  (net 12 "Net-(R4-Pad1)")
  (net 13 "Net-(P2-Pad3)")
  (net 14 "Net-(R5-Pad1)")
  (net 15 "Net-(D3-Pad1)")
  (net 16 "Net-(R11-Pad2)")
  (net 17 "Net-(R11-Pad1)")
  (net 18 "Net-(R10-Pad1)")
  (net 19 "Net-(R10-Pad2)")
  (net 20 "Net-(U2-Pad7)")
  (net 21 "Net-(P1-Pad2)")

  (net_class Default "Это класс цепей по умолчанию."
    (clearance 0.3)
    (trace_width 0.8)
    (via_dia 0.6)
    (via_drill 0.4)
    (uvia_dia 0.3)
    (uvia_drill 0.1)
    (add_net +3V3)
    (add_net GND)
    (add_net "Net-(D3-Pad1)")
    (add_net "Net-(F2-Pad1)")
    (add_net "Net-(F2-Pad2)")
    (add_net "Net-(F3-Pad1)")
    (add_net "Net-(F3-Pad2)")
    (add_net "Net-(JP1-Pad2)")
    (add_net "Net-(JP2-Pad1)")
    (add_net "Net-(P2-Pad2)")
    (add_net "Net-(P2-Pad3)")
    (add_net "Net-(R10-Pad1)")
    (add_net "Net-(R10-Pad2)")
    (add_net "Net-(R11-Pad1)")
    (add_net "Net-(R11-Pad2)")
    (add_net "Net-(R4-Pad1)")
    (add_net "Net-(R5-Pad1)")
    (add_net "Net-(U2-Pad7)")
  )

  (net_class 220v ""
    (clearance 2.5)
    (trace_width 2)
    (via_dia 0.6)
    (via_drill 0.4)
    (uvia_dia 0.3)
    (uvia_drill 0.1)
    (add_net "Net-(F1-Pad1)")
    (add_net "Net-(F1-Pad2)")
    (add_net "Net-(P1-Pad2)")
  )

  (net_class wide ""
    (clearance 0.9)
    (trace_width 1.5)
    (via_dia 0.6)
    (via_drill 0.4)
    (uvia_dia 0.3)
    (uvia_drill 0.1)
  )

  (module Capacitors_ThroughHole:C_Radial_D6.3_L11.2_P2.5 (layer B.Cu) (tedit 580E339D) (tstamp 580B992B)
    (at 146.685 109.474 180)
    (descr "Radial Electrolytic Capacitor, Diameter 6.3mm x Length 11.2mm, Pitch 2.5mm")
    (tags "Electrolytic Capacitor")
    (path /580B5B15)
    (fp_text reference C1 (at 1.25 4.4 180) (layer B.SilkS)
      (effects (font (size 1 1) (thickness 0.15)) (justify mirror))
    )
    (fp_text value CP (at 1.25 -4.4 180) (layer B.Fab)
      (effects (font (size 1 1) (thickness 0.15)) (justify mirror))
    )
    (fp_line (start 1.325 3.149) (end 1.325 -3.149) (layer B.SilkS) (width 0.15))
    (fp_line (start 1.465 3.143) (end 1.465 -3.143) (layer B.SilkS) (width 0.15))
    (fp_line (start 1.605 3.13) (end 1.605 0.446) (layer B.SilkS) (width 0.15))
    (fp_line (start 1.605 -0.446) (end 1.605 -3.13) (layer B.SilkS) (width 0.15))
    (fp_line (start 1.745 3.111) (end 1.745 0.656) (layer B.SilkS) (width 0.15))
    (fp_line (start 1.745 -0.656) (end 1.745 -3.111) (layer B.SilkS) (width 0.15))
    (fp_line (start 1.885 3.085) (end 1.885 0.789) (layer B.SilkS) (width 0.15))
    (fp_line (start 1.885 -0.789) (end 1.885 -3.085) (layer B.SilkS) (width 0.15))
    (fp_line (start 2.025 3.053) (end 2.025 0.88) (layer B.SilkS) (width 0.15))
    (fp_line (start 2.025 -0.88) (end 2.025 -3.053) (layer B.SilkS) (width 0.15))
    (fp_line (start 2.165 3.014) (end 2.165 0.942) (layer B.SilkS) (width 0.15))
    (fp_line (start 2.165 -0.942) (end 2.165 -3.014) (layer B.SilkS) (width 0.15))
    (fp_line (start 2.305 2.968) (end 2.305 0.981) (layer B.SilkS) (width 0.15))
    (fp_line (start 2.305 -0.981) (end 2.305 -2.968) (layer B.SilkS) (width 0.15))
    (fp_line (start 2.445 2.915) (end 2.445 0.998) (layer B.SilkS) (width 0.15))
    (fp_line (start 2.445 -0.998) (end 2.445 -2.915) (layer B.SilkS) (width 0.15))
    (fp_line (start 2.585 2.853) (end 2.585 0.996) (layer B.SilkS) (width 0.15))
    (fp_line (start 2.585 -0.996) (end 2.585 -2.853) (layer B.SilkS) (width 0.15))
    (fp_line (start 2.725 2.783) (end 2.725 0.974) (layer B.SilkS) (width 0.15))
    (fp_line (start 2.725 -0.974) (end 2.725 -2.783) (layer B.SilkS) (width 0.15))
    (fp_line (start 2.865 2.704) (end 2.865 0.931) (layer B.SilkS) (width 0.15))
    (fp_line (start 2.865 -0.931) (end 2.865 -2.704) (layer B.SilkS) (width 0.15))
    (fp_line (start 3.005 2.616) (end 3.005 0.863) (layer B.SilkS) (width 0.15))
    (fp_line (start 3.005 -0.863) (end 3.005 -2.616) (layer B.SilkS) (width 0.15))
    (fp_line (start 3.145 2.516) (end 3.145 0.764) (layer B.SilkS) (width 0.15))
    (fp_line (start 3.145 -0.764) (end 3.145 -2.516) (layer B.SilkS) (width 0.15))
    (fp_line (start 3.285 2.404) (end 3.285 0.619) (layer B.SilkS) (width 0.15))
    (fp_line (start 3.285 -0.619) (end 3.285 -2.404) (layer B.SilkS) (width 0.15))
    (fp_line (start 3.425 2.279) (end 3.425 0.38) (layer B.SilkS) (width 0.15))
    (fp_line (start 3.425 -0.38) (end 3.425 -2.279) (layer B.SilkS) (width 0.15))
    (fp_line (start 3.565 2.136) (end 3.565 -2.136) (layer B.SilkS) (width 0.15))
    (fp_line (start 3.705 1.974) (end 3.705 -1.974) (layer B.SilkS) (width 0.15))
    (fp_line (start 3.845 1.786) (end 3.845 -1.786) (layer B.SilkS) (width 0.15))
    (fp_line (start 3.985 1.563) (end 3.985 -1.563) (layer B.SilkS) (width 0.15))
    (fp_line (start 4.125 1.287) (end 4.125 -1.287) (layer B.SilkS) (width 0.15))
    (fp_line (start 4.265 0.912) (end 4.265 -0.912) (layer B.SilkS) (width 0.15))
    (fp_circle (center 2.5 0) (end 2.5 1) (layer B.SilkS) (width 0.15))
    (fp_circle (center 1.25 0) (end 1.25 3.1875) (layer B.SilkS) (width 0.15))
    (fp_circle (center 1.25 0) (end 1.25 3.4) (layer B.CrtYd) (width 0.05))
    (pad 2 thru_hole circle (at 2.5 0 180) (size 1.8 1.8) (drill 0.8) (layers *.Cu *.Mask B.SilkS)
      (net 1 GND))
    (pad 1 thru_hole rect (at 0 0 180) (size 1.8 1.8) (drill 0.8) (layers *.Cu *.Mask B.SilkS)
      (net 2 +3V3))
    (model Capacitors_ThroughHole.3dshapes/C_Radial_D6.3_L11.2_P2.5.wrl
      (at (xyz 0 0 0))
      (scale (xyz 1 1 1))
      (rotate (xyz 0 0 0))
    )
  )

  (module LEDs:LED-3MM (layer B.Cu) (tedit 559B82F6) (tstamp 580B993D)
    (at 109.093 84.582 270)
    (descr "LED 3mm round vertical")
    (tags "LED  3mm round vertical")
    (path /580BED61)
    (fp_text reference D3 (at 1.91 -3.06 270) (layer B.SilkS)
      (effects (font (size 1 1) (thickness 0.15)) (justify mirror))
    )
    (fp_text value Led_Small (at 1.3 2.9 270) (layer B.Fab)
      (effects (font (size 1 1) (thickness 0.15)) (justify mirror))
    )
    (fp_line (start -1.2 -2.3) (end 3.8 -2.3) (layer B.CrtYd) (width 0.05))
    (fp_line (start 3.8 -2.3) (end 3.8 2.2) (layer B.CrtYd) (width 0.05))
    (fp_line (start 3.8 2.2) (end -1.2 2.2) (layer B.CrtYd) (width 0.05))
    (fp_line (start -1.2 2.2) (end -1.2 -2.3) (layer B.CrtYd) (width 0.05))
    (fp_line (start -0.199 -1.314) (end -0.199 -1.114) (layer B.SilkS) (width 0.15))
    (fp_line (start -0.199 1.28) (end -0.199 1.1) (layer B.SilkS) (width 0.15))
    (fp_arc (start 1.301 -0.034) (end -0.199 1.286) (angle -108.5) (layer B.SilkS) (width 0.15))
    (fp_arc (start 1.301 -0.034) (end 0.25 1.1) (angle -85.7) (layer B.SilkS) (width 0.15))
    (fp_arc (start 1.311 -0.034) (end 3.051 -0.994) (angle -110) (layer B.SilkS) (width 0.15))
    (fp_arc (start 1.301 -0.034) (end 2.335 -1.094) (angle -87.5) (layer B.SilkS) (width 0.15))
    (fp_text user K (at -1.69 -1.74 270) (layer B.SilkS)
      (effects (font (size 1 1) (thickness 0.15)) (justify mirror))
    )
    (pad 1 thru_hole rect (at 0 0 180) (size 2 2) (drill 1.00076) (layers *.Cu *.Mask B.SilkS)
      (net 15 "Net-(D3-Pad1)"))
    (pad 2 thru_hole circle (at 2.54 0 270) (size 2 2) (drill 1.00076) (layers *.Cu *.Mask B.SilkS)
      (net 2 +3V3))
    (model LEDs.3dshapes/LED-3MM.wrl
      (at (xyz 0.05 0 0))
      (scale (xyz 1 1 1))
      (rotate (xyz 0 0 90))
    )
  )

  (module Capacitors_ThroughHole:C_Rect_L7_W2.5_P5 (layer B.Cu) (tedit 0) (tstamp 580B9943)
    (at 114.681 130.048 270)
    (descr "Film Capacitor Length 7mm x Width 2.5mm, Pitch 5mm")
    (tags Capacitor)
    (path /580B579B)
    (fp_text reference F1 (at 2.5 2.5 270) (layer B.SilkS)
      (effects (font (size 1 1) (thickness 0.15)) (justify mirror))
    )
    (fp_text value F_Small (at 2.5 -2.5 270) (layer B.Fab)
      (effects (font (size 1 1) (thickness 0.15)) (justify mirror))
    )
    (fp_line (start -1.25 1.5) (end 6.25 1.5) (layer B.CrtYd) (width 0.05))
    (fp_line (start 6.25 1.5) (end 6.25 -1.5) (layer B.CrtYd) (width 0.05))
    (fp_line (start 6.25 -1.5) (end -1.25 -1.5) (layer B.CrtYd) (width 0.05))
    (fp_line (start -1.25 -1.5) (end -1.25 1.5) (layer B.CrtYd) (width 0.05))
    (fp_line (start -1 1.25) (end 6 1.25) (layer B.SilkS) (width 0.15))
    (fp_line (start 6 1.25) (end 6 -1.25) (layer B.SilkS) (width 0.15))
    (fp_line (start 6 -1.25) (end -1 -1.25) (layer B.SilkS) (width 0.15))
    (fp_line (start -1 -1.25) (end -1 1.25) (layer B.SilkS) (width 0.15))
    (pad 1 thru_hole rect (at 0 0 270) (size 1.3 1.3) (drill 0.8) (layers *.Cu *.Mask B.SilkS)
      (net 3 "Net-(F1-Pad1)"))
    (pad 2 thru_hole circle (at 5 0 270) (size 1.3 1.3) (drill 0.8) (layers *.Cu *.Mask B.SilkS)
      (net 4 "Net-(F1-Pad2)"))
  )

  (module SMD_Packages:SMD-2010_Pol (layer F.Cu) (tedit 0) (tstamp 580B9949)
    (at 120.269 101.346 180)
    (tags "CMS SMD")
    (path /580B9B31)
    (attr smd)
    (fp_text reference F2 (at 0 -0.7 180) (layer F.SilkS)
      (effects (font (size 1 1) (thickness 0.15)))
    )
    (fp_text value F_Small (at 0 0.8 180) (layer F.Fab)
      (effects (font (size 1 1) (thickness 0.15)))
    )
    (fp_line (start -3.3 -1.6) (end -3.3 1.6) (layer F.SilkS) (width 0.15))
    (fp_line (start 3.50012 -1.6002) (end 3.50012 1.6002) (layer F.SilkS) (width 0.15))
    (fp_line (start -3.5 -1.6) (end -3.5 1.6) (layer F.SilkS) (width 0.15))
    (fp_line (start 1.19634 1.60528) (end 3.48234 1.60528) (layer F.SilkS) (width 0.15))
    (fp_line (start 3.48234 -1.60528) (end 1.19634 -1.60528) (layer F.SilkS) (width 0.15))
    (fp_line (start -1.2 -1.6) (end -3.5 -1.6) (layer F.SilkS) (width 0.15))
    (fp_line (start -3.5 1.6) (end -1.2 1.6) (layer F.SilkS) (width 0.15))
    (pad 1 smd rect (at -2.4003 0 180) (size 1.80086 2.70002) (layers F.Cu F.Paste F.Mask)
      (net 5 "Net-(F2-Pad1)"))
    (pad 2 smd rect (at 2.4003 0 180) (size 1.80086 2.70002) (layers F.Cu F.Paste F.Mask)
      (net 6 "Net-(F2-Pad2)"))
    (model SMD_Packages.3dshapes/SMD-2010_Pol.wrl
      (at (xyz 0 0 0))
      (scale (xyz 0.35 0.35 0.35))
      (rotate (xyz 0 0 0))
    )
  )

  (module SMD_Packages:SMD-2010_Pol (layer F.Cu) (tedit 0) (tstamp 580B994F)
    (at 120.142 96.012 180)
    (tags "CMS SMD")
    (path /580BA095)
    (attr smd)
    (fp_text reference F3 (at 0 -0.7 180) (layer F.SilkS)
      (effects (font (size 1 1) (thickness 0.15)))
    )
    (fp_text value F_Small (at 0 0.8 180) (layer F.Fab)
      (effects (font (size 1 1) (thickness 0.15)))
    )
    (fp_line (start -3.3 -1.6) (end -3.3 1.6) (layer F.SilkS) (width 0.15))
    (fp_line (start 3.50012 -1.6002) (end 3.50012 1.6002) (layer F.SilkS) (width 0.15))
    (fp_line (start -3.5 -1.6) (end -3.5 1.6) (layer F.SilkS) (width 0.15))
    (fp_line (start 1.19634 1.60528) (end 3.48234 1.60528) (layer F.SilkS) (width 0.15))
    (fp_line (start 3.48234 -1.60528) (end 1.19634 -1.60528) (layer F.SilkS) (width 0.15))
    (fp_line (start -1.2 -1.6) (end -3.5 -1.6) (layer F.SilkS) (width 0.15))
    (fp_line (start -3.5 1.6) (end -1.2 1.6) (layer F.SilkS) (width 0.15))
    (pad 1 smd rect (at -2.4003 0 180) (size 1.80086 2.70002) (layers F.Cu F.Paste F.Mask)
      (net 7 "Net-(F3-Pad1)"))
    (pad 2 smd rect (at 2.4003 0 180) (size 1.80086 2.70002) (layers F.Cu F.Paste F.Mask)
      (net 8 "Net-(F3-Pad2)"))
    (model SMD_Packages.3dshapes/SMD-2010_Pol.wrl
      (at (xyz 0 0 0))
      (scale (xyz 0.35 0.35 0.35))
      (rotate (xyz 0 0 0))
    )
  )

  (module Pin_Headers:Pin_Header_Straight_1x02 (layer B.Cu) (tedit 54EA090C) (tstamp 580B9955)
    (at 143.383 94.107 270)
    (descr "Through hole pin header")
    (tags "pin header")
    (path /580B7B8E)
    (fp_text reference JP1 (at 0 5.1 270) (layer B.SilkS)
      (effects (font (size 1 1) (thickness 0.15)) (justify mirror))
    )
    (fp_text value Jumper_NO_Small (at 0 3.1 270) (layer B.Fab)
      (effects (font (size 1 1) (thickness 0.15)) (justify mirror))
    )
    (fp_line (start 1.27 -1.27) (end 1.27 -3.81) (layer B.SilkS) (width 0.15))
    (fp_line (start 1.55 1.55) (end 1.55 0) (layer B.SilkS) (width 0.15))
    (fp_line (start -1.75 1.75) (end -1.75 -4.3) (layer B.CrtYd) (width 0.05))
    (fp_line (start 1.75 1.75) (end 1.75 -4.3) (layer B.CrtYd) (width 0.05))
    (fp_line (start -1.75 1.75) (end 1.75 1.75) (layer B.CrtYd) (width 0.05))
    (fp_line (start -1.75 -4.3) (end 1.75 -4.3) (layer B.CrtYd) (width 0.05))
    (fp_line (start 1.27 -1.27) (end -1.27 -1.27) (layer B.SilkS) (width 0.15))
    (fp_line (start -1.55 0) (end -1.55 1.55) (layer B.SilkS) (width 0.15))
    (fp_line (start -1.55 1.55) (end 1.55 1.55) (layer B.SilkS) (width 0.15))
    (fp_line (start -1.27 -1.27) (end -1.27 -3.81) (layer B.SilkS) (width 0.15))
    (fp_line (start -1.27 -3.81) (end 1.27 -3.81) (layer B.SilkS) (width 0.15))
    (pad 1 thru_hole rect (at 0 0 270) (size 2.032 2.032) (drill 1.016) (layers *.Cu *.Mask B.SilkS)
      (net 1 GND))
    (pad 2 thru_hole oval (at 0 -2.54 270) (size 2.032 2.032) (drill 1.016) (layers *.Cu *.Mask B.SilkS)
      (net 9 "Net-(JP1-Pad2)"))
    (model Pin_Headers.3dshapes/Pin_Header_Straight_1x02.wrl
      (at (xyz 0 -0.05 0))
      (scale (xyz 1 1 1))
      (rotate (xyz 0 0 90))
    )
  )

  (module Pin_Headers:Pin_Header_Straight_1x02 (layer B.Cu) (tedit 54EA090C) (tstamp 580B995B)
    (at 113.792 100.965 180)
    (descr "Through hole pin header")
    (tags "pin header")
    (path /580BA7B1)
    (fp_text reference JP2 (at 0 5.1 180) (layer B.SilkS)
      (effects (font (size 1 1) (thickness 0.15)) (justify mirror))
    )
    (fp_text value Jumper_NO_Small (at 0 3.1 180) (layer B.Fab)
      (effects (font (size 1 1) (thickness 0.15)) (justify mirror))
    )
    (fp_line (start 1.27 -1.27) (end 1.27 -3.81) (layer B.SilkS) (width 0.15))
    (fp_line (start 1.55 1.55) (end 1.55 0) (layer B.SilkS) (width 0.15))
    (fp_line (start -1.75 1.75) (end -1.75 -4.3) (layer B.CrtYd) (width 0.05))
    (fp_line (start 1.75 1.75) (end 1.75 -4.3) (layer B.CrtYd) (width 0.05))
    (fp_line (start -1.75 1.75) (end 1.75 1.75) (layer B.CrtYd) (width 0.05))
    (fp_line (start -1.75 -4.3) (end 1.75 -4.3) (layer B.CrtYd) (width 0.05))
    (fp_line (start 1.27 -1.27) (end -1.27 -1.27) (layer B.SilkS) (width 0.15))
    (fp_line (start -1.55 0) (end -1.55 1.55) (layer B.SilkS) (width 0.15))
    (fp_line (start -1.55 1.55) (end 1.55 1.55) (layer B.SilkS) (width 0.15))
    (fp_line (start -1.27 -1.27) (end -1.27 -3.81) (layer B.SilkS) (width 0.15))
    (fp_line (start -1.27 -3.81) (end 1.27 -3.81) (layer B.SilkS) (width 0.15))
    (pad 1 thru_hole rect (at 0 0 180) (size 2.032 2.032) (drill 1.016) (layers *.Cu *.Mask B.SilkS)
      (net 10 "Net-(JP2-Pad1)"))
    (pad 2 thru_hole oval (at 0 -2.54 180) (size 2.032 2.032) (drill 1.016) (layers *.Cu *.Mask B.SilkS)
      (net 6 "Net-(F2-Pad2)"))
    (model Pin_Headers.3dshapes/Pin_Header_Straight_1x02.wrl
      (at (xyz 0 -0.05 0))
      (scale (xyz 1 1 1))
      (rotate (xyz 0 0 90))
    )
  )

  (module esp8266_modbusgate_board:HLK-PMxx (layer B.Cu) (tedit 580CFB7E) (tstamp 580B9968)
    (at 130.302 120.523 90)
    (path /580B5589)
    (fp_text reference U1 (at -9.35 0 360) (layer B.SilkS)
      (effects (font (size 1.2 1.2) (thickness 0.15)) (justify mirror))
    )
    (fp_text value HLK-PMxx (at 0 0 90) (layer B.Fab)
      (effects (font (size 1.2 1.2) (thickness 0.15)) (justify mirror))
    )
    (fp_line (start 17.0815 10.033) (end 17.0815 -10.033) (layer B.SilkS) (width 0.15))
    (fp_line (start -17.0815 -10.033) (end -17.0815 10.033) (layer B.SilkS) (width 0.15))
    (fp_line (start -17.0815 -10.033) (end 17.0815 -10.033) (layer B.SilkS) (width 0.15))
    (fp_line (start -17.0815 10.033) (end 17.0815 10.033) (layer B.SilkS) (width 0.15))
    (fp_line (start -17.0815 -8.001) (end -17.0815 8.001) (layer B.SilkS) (width 0.15))
    (pad 1 thru_hole circle (at -14.5415 2.54 90) (size 3 3) (drill 1.1) (layers *.Cu *.Mask)
      (net 21 "Net-(P1-Pad2)"))
    (pad 2 thru_hole circle (at -14.5415 -2.54 90) (size 3 3) (drill 1.1) (layers *.Cu *.Mask)
      (net 4 "Net-(F1-Pad2)"))
    (pad 3 thru_hole circle (at 14.5415 -7.493 90) (size 3 3) (drill 1.1) (layers *.Cu *.Mask)
      (net 2 +3V3))
    (pad 4 thru_hole circle (at 14.5415 7.493 90) (size 3 3) (drill 1.1) (layers *.Cu *.Mask)
      (net 1 GND))
  )

  (module esp8266_modbusgate_board:ESP-07 (layer F.Cu) (tedit 580B7C4D) (tstamp 580B9980)
    (at 130.175 83.058 270)
    (path /580B554C)
    (fp_text reference U2 (at -9.35 0 360) (layer F.SilkS)
      (effects (font (size 1.2 1.2) (thickness 0.15)))
    )
    (fp_text value ESP-07 (at 0 0 270) (layer F.Fab)
      (effects (font (size 1.2 1.2) (thickness 0.15)))
    )
    (fp_line (start 8.509 8.001) (end 8.509 -8.001) (layer F.SilkS) (width 0.15))
    (fp_line (start -12.7 8.001) (end -12.7 -8.001) (layer F.SilkS) (width 0.15))
    (fp_line (start 8.509 -8.001) (end -12.7 -8.001) (layer F.SilkS) (width 0.15))
    (fp_line (start -12.7 8.001) (end 8.509 8.001) (layer F.SilkS) (width 0.15))
    (pad 16 smd rect (at -7 -8.651 270) (size 1.3 3.5) (layers F.Cu F.Paste F.Mask)
      (net 11 "Net-(P2-Pad2)"))
    (pad 1 smd rect (at -7 8.651 270) (size 1.3 3.5) (layers F.Cu F.Paste F.Mask)
      (net 12 "Net-(R4-Pad1)"))
    (pad 15 smd rect (at -5 -8.651 270) (size 1.3 3.5) (layers F.Cu F.Paste F.Mask)
      (net 13 "Net-(P2-Pad3)"))
    (pad 2 smd rect (at -5 8.651 270) (size 1.3 3.5) (layers F.Cu F.Paste F.Mask))
    (pad 14 smd rect (at -3 -8.651 270) (size 1.3 3.5) (layers F.Cu F.Paste F.Mask))
    (pad 3 smd rect (at -3 8.651 270) (size 1.3 3.5) (layers F.Cu F.Paste F.Mask)
      (net 14 "Net-(R5-Pad1)"))
    (pad 13 smd rect (at -1 -8.651 270) (size 1.3 3.5) (layers F.Cu F.Paste F.Mask))
    (pad 4 smd rect (at -1 8.651 270) (size 1.3 3.5) (layers F.Cu F.Paste F.Mask))
    (pad 12 smd rect (at 1 -8.651 270) (size 1.3 3.5) (layers F.Cu F.Paste F.Mask)
      (net 9 "Net-(JP1-Pad2)"))
    (pad 5 smd rect (at 1 8.651 270) (size 1.3 3.5) (layers F.Cu F.Paste F.Mask))
    (pad 11 smd rect (at 3 -8.651 270) (size 1.3 3.5) (layers F.Cu F.Paste F.Mask))
    (pad 6 smd rect (at 3 8.651 270) (size 1.3 3.5) (layers F.Cu F.Paste F.Mask)
      (net 18 "Net-(R10-Pad1)"))
    (pad 10 smd rect (at 5 -8.651 270) (size 1.3 3.5) (layers F.Cu F.Paste F.Mask)
      (net 17 "Net-(R11-Pad1)"))
    (pad 7 smd rect (at 5 8.651 270) (size 1.3 3.5) (layers F.Cu F.Paste F.Mask)
      (net 20 "Net-(U2-Pad7)"))
    (pad 9 smd rect (at 7 -8.651 270) (size 1.3 3.5) (layers F.Cu F.Paste F.Mask)
      (net 1 GND))
    (pad 8 smd rect (at 7 8.651 270) (size 1.3 3.5) (layers F.Cu F.Paste F.Mask)
      (net 2 +3V3))
  )

  (module Connectors_Phoenix:PhoenixContact_MSTBA-G_02x5.08mm_Angled (layer B.Cu) (tedit 5797DB0C) (tstamp 580B9BE9)
    (at 109.093 123.698 90)
    (descr "Generic Phoenix Contact connector footprint for series: MSTBA-G; number of pins: 02; pin pitch: 5.08mm; Angled || order number: 1923869 16A (HC) || order number: 1757242 12A")
    (tags "phoenix_contact connector MSTBA_01x02_G_5.08mm")
    (path /580B5725)
    (fp_text reference P1 (at 3.54 3.2 90) (layer B.SilkS)
      (effects (font (size 1 1) (thickness 0.15)) (justify mirror))
    )
    (fp_text value CONN_01X02 (at 2.54 -11.5 90) (layer B.Fab)
      (effects (font (size 1 1) (thickness 0.15)) (justify mirror))
    )
    (fp_line (start -3.62 2.08) (end -3.62 -10.08) (layer B.SilkS) (width 0.15))
    (fp_line (start -3.62 -10.08) (end 8.7 -10.08) (layer B.SilkS) (width 0.15))
    (fp_line (start 8.7 -10.08) (end 8.7 2.08) (layer B.SilkS) (width 0.15))
    (fp_line (start 8.7 2.08) (end -3.62 2.08) (layer B.SilkS) (width 0.15))
    (fp_line (start -3.62 -8.58) (end -3.62 -6.78) (layer B.SilkS) (width 0.15))
    (fp_line (start -3.62 -6.78) (end 8.7 -6.78) (layer B.SilkS) (width 0.15))
    (fp_line (start 8.7 -6.78) (end 8.7 -8.58) (layer B.SilkS) (width 0.15))
    (fp_line (start 8.7 -8.58) (end -3.62 -8.58) (layer B.SilkS) (width 0.15))
    (fp_line (start -1 -10.08) (end 1 -10.08) (layer B.SilkS) (width 0.15))
    (fp_line (start 1 -10.08) (end 0.75 -8.58) (layer B.SilkS) (width 0.15))
    (fp_line (start 0.75 -8.58) (end -0.75 -8.58) (layer B.SilkS) (width 0.15))
    (fp_line (start -0.75 -8.58) (end -1 -10.08) (layer B.SilkS) (width 0.15))
    (fp_line (start 4.08 -10.08) (end 6.08 -10.08) (layer B.SilkS) (width 0.15))
    (fp_line (start 6.08 -10.08) (end 5.83 -8.58) (layer B.SilkS) (width 0.15))
    (fp_line (start 5.83 -8.58) (end 4.33 -8.58) (layer B.SilkS) (width 0.15))
    (fp_line (start 4.33 -8.58) (end 4.08 -10.08) (layer B.SilkS) (width 0.15))
    (fp_line (start -4.05 2.5) (end -4.05 -10.5) (layer B.CrtYd) (width 0.05))
    (fp_line (start -4.05 -10.5) (end 9.1 -10.5) (layer B.CrtYd) (width 0.05))
    (fp_line (start 9.1 -10.5) (end 9.1 2.5) (layer B.CrtYd) (width 0.05))
    (fp_line (start 9.1 2.5) (end -4.05 2.5) (layer B.CrtYd) (width 0.05))
    (fp_line (start 0 2.5) (end 0.3 3.1) (layer B.SilkS) (width 0.15))
    (fp_line (start 0.3 3.1) (end -0.3 3.1) (layer B.SilkS) (width 0.15))
    (fp_line (start -0.3 3.1) (end 0 2.5) (layer B.SilkS) (width 0.15))
    (pad 1 thru_hole rect (at 0 0 90) (size 2.1 3.6) (drill 1.4) (layers *.Cu *.Mask)
      (net 3 "Net-(F1-Pad1)"))
    (pad 2 thru_hole oval (at 5.08 0 90) (size 2.1 3.6) (drill 1.4) (layers *.Cu *.Mask)
      (net 21 "Net-(P1-Pad2)"))
    (model Connectors_Phoenix.3dshapes/PhoenixContact_MSTBA-G_02x5.08mm_Angled.wrl
      (at (xyz 0 0 0))
      (scale (xyz 1 1 1))
      (rotate (xyz 0 0 0))
    )
  )

  (module Pin_Headers:Pin_Header_Straight_1x04 (layer B.Cu) (tedit 0) (tstamp 580B9BF1)
    (at 147.574 80.264 180)
    (descr "Through hole pin header")
    (tags "pin header")
    (path /580C38F4)
    (fp_text reference P2 (at 0 5.1 180) (layer B.SilkS)
      (effects (font (size 1 1) (thickness 0.15)) (justify mirror))
    )
    (fp_text value CONN_01X04 (at 0 3.1 180) (layer B.Fab)
      (effects (font (size 1 1) (thickness 0.15)) (justify mirror))
    )
    (fp_line (start -1.75 1.75) (end -1.75 -9.4) (layer B.CrtYd) (width 0.05))
    (fp_line (start 1.75 1.75) (end 1.75 -9.4) (layer B.CrtYd) (width 0.05))
    (fp_line (start -1.75 1.75) (end 1.75 1.75) (layer B.CrtYd) (width 0.05))
    (fp_line (start -1.75 -9.4) (end 1.75 -9.4) (layer B.CrtYd) (width 0.05))
    (fp_line (start -1.27 -1.27) (end -1.27 -8.89) (layer B.SilkS) (width 0.15))
    (fp_line (start 1.27 -1.27) (end 1.27 -8.89) (layer B.SilkS) (width 0.15))
    (fp_line (start 1.55 1.55) (end 1.55 0) (layer B.SilkS) (width 0.15))
    (fp_line (start -1.27 -8.89) (end 1.27 -8.89) (layer B.SilkS) (width 0.15))
    (fp_line (start 1.27 -1.27) (end -1.27 -1.27) (layer B.SilkS) (width 0.15))
    (fp_line (start -1.55 0) (end -1.55 1.55) (layer B.SilkS) (width 0.15))
    (fp_line (start -1.55 1.55) (end 1.55 1.55) (layer B.SilkS) (width 0.15))
    (pad 1 thru_hole rect (at 0 0 180) (size 2.032 1.7272) (drill 1.016) (layers *.Cu *.Mask B.SilkS)
      (net 2 +3V3))
    (pad 2 thru_hole oval (at 0 -2.54 180) (size 2.032 1.7272) (drill 1.016) (layers *.Cu *.Mask B.SilkS)
      (net 11 "Net-(P2-Pad2)"))
    (pad 3 thru_hole oval (at 0 -5.08 180) (size 2.032 1.7272) (drill 1.016) (layers *.Cu *.Mask B.SilkS)
      (net 13 "Net-(P2-Pad3)"))
    (pad 4 thru_hole oval (at 0 -7.62 180) (size 2.032 1.7272) (drill 1.016) (layers *.Cu *.Mask B.SilkS)
      (net 1 GND))
    (model Pin_Headers.3dshapes/Pin_Header_Straight_1x04.wrl
      (at (xyz 0 -0.15 0))
      (scale (xyz 1 1 1))
      (rotate (xyz 0 0 90))
    )
  )

  (module Resistors_SMD:R_1206 (layer F.Cu) (tedit 5415CFA7) (tstamp 580B9C20)
    (at 109.093 80.01 90)
    (descr "Resistor SMD 1206, reflow soldering, Vishay (see dcrcw.pdf)")
    (tags "resistor 1206")
    (path /580BECAF)
    (attr smd)
    (fp_text reference R3 (at 0 -2.3 90) (layer F.SilkS)
      (effects (font (size 1 1) (thickness 0.15)))
    )
    (fp_text value 1K (at 0 2.3 90) (layer F.Fab)
      (effects (font (size 1 1) (thickness 0.15)))
    )
    (fp_line (start -2.2 -1.2) (end 2.2 -1.2) (layer F.CrtYd) (width 0.05))
    (fp_line (start -2.2 1.2) (end 2.2 1.2) (layer F.CrtYd) (width 0.05))
    (fp_line (start -2.2 -1.2) (end -2.2 1.2) (layer F.CrtYd) (width 0.05))
    (fp_line (start 2.2 -1.2) (end 2.2 1.2) (layer F.CrtYd) (width 0.05))
    (fp_line (start 1 1.075) (end -1 1.075) (layer F.SilkS) (width 0.15))
    (fp_line (start -1 -1.075) (end 1 -1.075) (layer F.SilkS) (width 0.15))
    (pad 1 smd rect (at -1.45 0 90) (size 0.9 1.7) (layers F.Cu F.Paste F.Mask)
      (net 15 "Net-(D3-Pad1)"))
    (pad 2 smd rect (at 1.45 0 90) (size 0.9 1.7) (layers F.Cu F.Paste F.Mask)
      (net 1 GND))
    (model Resistors_SMD.3dshapes/R_1206.wrl
      (at (xyz 0 0 0))
      (scale (xyz 1 1 1))
      (rotate (xyz 0 0 0))
    )
  )

  (module Resistors_SMD:R_1206 (layer F.Cu) (tedit 5415CFA7) (tstamp 580B9C26)
    (at 113.792 83.312 270)
    (descr "Resistor SMD 1206, reflow soldering, Vishay (see dcrcw.pdf)")
    (tags "resistor 1206")
    (path /580B6FE0)
    (attr smd)
    (fp_text reference R4 (at 0 -2.3 270) (layer F.SilkS)
      (effects (font (size 1 1) (thickness 0.15)))
    )
    (fp_text value 1K (at 0 2.3 270) (layer F.Fab)
      (effects (font (size 1 1) (thickness 0.15)))
    )
    (fp_line (start -2.2 -1.2) (end 2.2 -1.2) (layer F.CrtYd) (width 0.05))
    (fp_line (start -2.2 1.2) (end 2.2 1.2) (layer F.CrtYd) (width 0.05))
    (fp_line (start -2.2 -1.2) (end -2.2 1.2) (layer F.CrtYd) (width 0.05))
    (fp_line (start 2.2 -1.2) (end 2.2 1.2) (layer F.CrtYd) (width 0.05))
    (fp_line (start 1 1.075) (end -1 1.075) (layer F.SilkS) (width 0.15))
    (fp_line (start -1 -1.075) (end 1 -1.075) (layer F.SilkS) (width 0.15))
    (pad 1 smd rect (at -1.45 0 270) (size 0.9 1.7) (layers F.Cu F.Paste F.Mask)
      (net 12 "Net-(R4-Pad1)"))
    (pad 2 smd rect (at 1.45 0 270) (size 0.9 1.7) (layers F.Cu F.Paste F.Mask)
      (net 2 +3V3))
    (model Resistors_SMD.3dshapes/R_1206.wrl
      (at (xyz 0 0 0))
      (scale (xyz 1 1 1))
      (rotate (xyz 0 0 0))
    )
  )

  (module Resistors_SMD:R_1206 (layer F.Cu) (tedit 5415CFA7) (tstamp 580B9C2C)
    (at 117.221 83.312 270)
    (descr "Resistor SMD 1206, reflow soldering, Vishay (see dcrcw.pdf)")
    (tags "resistor 1206")
    (path /580B7065)
    (attr smd)
    (fp_text reference R5 (at 0 -2.3 270) (layer F.SilkS)
      (effects (font (size 1 1) (thickness 0.15)))
    )
    (fp_text value 1K (at 0 2.3 270) (layer F.Fab)
      (effects (font (size 1 1) (thickness 0.15)))
    )
    (fp_line (start -2.2 -1.2) (end 2.2 -1.2) (layer F.CrtYd) (width 0.05))
    (fp_line (start -2.2 1.2) (end 2.2 1.2) (layer F.CrtYd) (width 0.05))
    (fp_line (start -2.2 -1.2) (end -2.2 1.2) (layer F.CrtYd) (width 0.05))
    (fp_line (start 2.2 -1.2) (end 2.2 1.2) (layer F.CrtYd) (width 0.05))
    (fp_line (start 1 1.075) (end -1 1.075) (layer F.SilkS) (width 0.15))
    (fp_line (start -1 -1.075) (end 1 -1.075) (layer F.SilkS) (width 0.15))
    (pad 1 smd rect (at -1.45 0 270) (size 0.9 1.7) (layers F.Cu F.Paste F.Mask)
      (net 14 "Net-(R5-Pad1)"))
    (pad 2 smd rect (at 1.45 0 270) (size 0.9 1.7) (layers F.Cu F.Paste F.Mask)
      (net 2 +3V3))
    (model Resistors_SMD.3dshapes/R_1206.wrl
      (at (xyz 0 0 0))
      (scale (xyz 1 1 1))
      (rotate (xyz 0 0 0))
    )
  )

  (module Resistors_SMD:R_1206 (layer F.Cu) (tedit 5415CFA7) (tstamp 580B9C32)
    (at 148.844 91.059)
    (descr "Resistor SMD 1206, reflow soldering, Vishay (see dcrcw.pdf)")
    (tags "resistor 1206")
    (path /580C2A0E)
    (attr smd)
    (fp_text reference R6 (at 0 -2.3) (layer F.SilkS)
      (effects (font (size 1 1) (thickness 0.15)))
    )
    (fp_text value 1K (at 0 2.3) (layer F.Fab)
      (effects (font (size 1 1) (thickness 0.15)))
    )
    (fp_line (start -2.2 -1.2) (end 2.2 -1.2) (layer F.CrtYd) (width 0.05))
    (fp_line (start -2.2 1.2) (end 2.2 1.2) (layer F.CrtYd) (width 0.05))
    (fp_line (start -2.2 -1.2) (end -2.2 1.2) (layer F.CrtYd) (width 0.05))
    (fp_line (start 2.2 -1.2) (end 2.2 1.2) (layer F.CrtYd) (width 0.05))
    (fp_line (start 1 1.075) (end -1 1.075) (layer F.SilkS) (width 0.15))
    (fp_line (start -1 -1.075) (end 1 -1.075) (layer F.SilkS) (width 0.15))
    (pad 1 smd rect (at -1.45 0) (size 0.9 1.7) (layers F.Cu F.Paste F.Mask)
      (net 9 "Net-(JP1-Pad2)"))
    (pad 2 smd rect (at 1.45 0) (size 0.9 1.7) (layers F.Cu F.Paste F.Mask)
      (net 2 +3V3))
    (model Resistors_SMD.3dshapes/R_1206.wrl
      (at (xyz 0 0 0))
      (scale (xyz 1 1 1))
      (rotate (xyz 0 0 0))
    )
  )

  (module Resistors_SMD:R_1206 (layer F.Cu) (tedit 5415CFA7) (tstamp 580B9C38)
    (at 139.573 94.361 270)
    (descr "Resistor SMD 1206, reflow soldering, Vishay (see dcrcw.pdf)")
    (tags "resistor 1206")
    (path /580B66E2)
    (attr smd)
    (fp_text reference R7 (at 0 -2.3 270) (layer F.SilkS)
      (effects (font (size 1 1) (thickness 0.15)))
    )
    (fp_text value 1K (at 0 2.3 270) (layer F.Fab)
      (effects (font (size 1 1) (thickness 0.15)))
    )
    (fp_line (start -2.2 -1.2) (end 2.2 -1.2) (layer F.CrtYd) (width 0.05))
    (fp_line (start -2.2 1.2) (end 2.2 1.2) (layer F.CrtYd) (width 0.05))
    (fp_line (start -2.2 -1.2) (end -2.2 1.2) (layer F.CrtYd) (width 0.05))
    (fp_line (start 2.2 -1.2) (end 2.2 1.2) (layer F.CrtYd) (width 0.05))
    (fp_line (start 1 1.075) (end -1 1.075) (layer F.SilkS) (width 0.15))
    (fp_line (start -1 -1.075) (end 1 -1.075) (layer F.SilkS) (width 0.15))
    (pad 1 smd rect (at -1.45 0 270) (size 0.9 1.7) (layers F.Cu F.Paste F.Mask)
      (net 17 "Net-(R11-Pad1)"))
    (pad 2 smd rect (at 1.45 0 270) (size 0.9 1.7) (layers F.Cu F.Paste F.Mask)
      (net 1 GND))
    (model Resistors_SMD.3dshapes/R_1206.wrl
      (at (xyz 0 0 0))
      (scale (xyz 1 1 1))
      (rotate (xyz 0 0 0))
    )
  )

  (module Resistors_SMD:R_1206 (layer F.Cu) (tedit 5415CFA7) (tstamp 580B9C3E)
    (at 113.792 95.631 270)
    (descr "Resistor SMD 1206, reflow soldering, Vishay (see dcrcw.pdf)")
    (tags "resistor 1206")
    (path /580C65DE)
    (attr smd)
    (fp_text reference R8 (at 0 -2.3 270) (layer F.SilkS)
      (effects (font (size 1 1) (thickness 0.15)))
    )
    (fp_text value 120 (at 0 2.3 270) (layer F.Fab)
      (effects (font (size 1 1) (thickness 0.15)))
    )
    (fp_line (start -2.2 -1.2) (end 2.2 -1.2) (layer F.CrtYd) (width 0.05))
    (fp_line (start -2.2 1.2) (end 2.2 1.2) (layer F.CrtYd) (width 0.05))
    (fp_line (start -2.2 -1.2) (end -2.2 1.2) (layer F.CrtYd) (width 0.05))
    (fp_line (start 2.2 -1.2) (end 2.2 1.2) (layer F.CrtYd) (width 0.05))
    (fp_line (start 1 1.075) (end -1 1.075) (layer F.SilkS) (width 0.15))
    (fp_line (start -1 -1.075) (end 1 -1.075) (layer F.SilkS) (width 0.15))
    (pad 1 smd rect (at -1.45 0 270) (size 0.9 1.7) (layers F.Cu F.Paste F.Mask)
      (net 8 "Net-(F3-Pad2)"))
    (pad 2 smd rect (at 1.45 0 270) (size 0.9 1.7) (layers F.Cu F.Paste F.Mask)
      (net 10 "Net-(JP2-Pad1)"))
    (model Resistors_SMD.3dshapes/R_1206.wrl
      (at (xyz 0 0 0))
      (scale (xyz 1 1 1))
      (rotate (xyz 0 0 0))
    )
  )

  (module esp8266_modbusgate_board:BTN (layer B.Cu) (tedit 580B8E1C) (tstamp 580B9C51)
    (at 113.411 75.946 90)
    (path /580B824C)
    (fp_text reference SW1 (at -4.0005 0.254 360) (layer B.SilkS)
      (effects (font (size 1.2 1.2) (thickness 0.15)) (justify mirror))
    )
    (fp_text value SW_PUSH_SMALL_H (at 0 0 90) (layer B.Fab)
      (effects (font (size 1.2 1.2) (thickness 0.15)) (justify mirror))
    )
    (fp_line (start 3.1115 -2.794) (end 3.1115 -3.1115) (layer B.SilkS) (width 0.15))
    (fp_line (start 3.1115 -3.1115) (end -3.1115 -3.1115) (layer B.SilkS) (width 0.15))
    (fp_line (start -3.1115 -3.1115) (end -3.1115 -2.794) (layer B.SilkS) (width 0.15))
    (fp_circle (center 0 0) (end 1.7145 0) (layer B.SilkS) (width 0.15))
    (fp_line (start 3.1115 3.1115) (end 3.1115 -2.794) (layer B.SilkS) (width 0.15))
    (fp_line (start -3.1115 3.1115) (end 3.1115 3.1115) (layer B.SilkS) (width 0.15))
    (fp_line (start -3.1115 -2.794) (end -3.1115 3.1115) (layer B.SilkS) (width 0.15))
    (pad 1 thru_hole circle (at 0 2.54 90) (size 2.5 2.5) (drill 1) (layers *.Cu *.Mask)
      (net 12 "Net-(R4-Pad1)"))
    (pad 2 thru_hole circle (at 0 -2.54 90) (size 2.5 2.5) (drill 1) (layers *.Cu *.Mask)
      (net 1 GND))
  )

  (module esp8266_modbusgate_board:CONN (layer B.Cu) (tedit 580BA34A) (tstamp 580BA8D5)
    (at 105.283 97.79 270)
    (path /580B60DE)
    (fp_text reference P3 (at -9.144 0.127 540) (layer B.SilkS)
      (effects (font (size 1.2 1.2) (thickness 0.15)) (justify mirror))
    )
    (fp_text value CONN_01X03 (at 0 0 270) (layer B.Fab)
      (effects (font (size 1.2 1.2) (thickness 0.15)) (justify mirror))
    )
    (fp_line (start -6.4135 6.0325) (end -6.4135 5.461) (layer B.SilkS) (width 0.15))
    (fp_line (start -6.4135 5.461) (end -4.0005 5.461) (layer B.SilkS) (width 0.15))
    (fp_line (start -4.0005 5.461) (end -4.0005 6.0325) (layer B.SilkS) (width 0.15))
    (fp_line (start -4.0005 6.0325) (end -6.4135 6.0325) (layer B.SilkS) (width 0.15))
    (fp_line (start -1.27 6.0325) (end -1.27 5.461) (layer B.SilkS) (width 0.15))
    (fp_line (start -1.27 5.461) (end 1.27 5.461) (layer B.SilkS) (width 0.15))
    (fp_line (start 1.27 5.461) (end 1.27 6.0325) (layer B.SilkS) (width 0.15))
    (fp_line (start 1.27 6.0325) (end -1.27 6.0325) (layer B.SilkS) (width 0.15))
    (fp_line (start 3.937 6.0325) (end 3.937 5.461) (layer B.SilkS) (width 0.15))
    (fp_line (start 3.937 5.461) (end 6.4135 5.461) (layer B.SilkS) (width 0.15))
    (fp_line (start 6.4135 5.461) (end 6.4135 6.0325) (layer B.SilkS) (width 0.15))
    (fp_line (start 6.4135 6.0325) (end 3.937 6.0325) (layer B.SilkS) (width 0.15))
    (fp_line (start 8.1915 -6.2865) (end 8.1915 6.2865) (layer B.SilkS) (width 0.15))
    (fp_line (start -8.1915 6.2865) (end 8.1915 6.2865) (layer B.SilkS) (width 0.15))
    (fp_line (start -8.1915 -6.2865) (end -8.1915 6.2865) (layer B.SilkS) (width 0.15))
    (fp_line (start -8.1915 -6.2865) (end 8.1915 -6.2865) (layer B.SilkS) (width 0.15))
    (fp_line (start -0.0635 6.2865) (end 4.445 6.2865) (layer B.SilkS) (width 0.15))
    (fp_line (start 0.0635 -6.2865) (end -4.0005 -6.2865) (layer B.SilkS) (width 0.15))
    (fp_line (start 0 -6.2865) (end 4.572 -6.2865) (layer B.SilkS) (width 0.15))
    (pad 1 thru_hole circle (at 5.207 1.778 270) (size 2.5 2.5) (drill 1) (layers *.Cu *.Mask)
      (net 6 "Net-(F2-Pad2)"))
    (pad 1 thru_hole circle (at 5.207 -3.302 270) (size 2.5 2.5) (drill 1) (layers *.Cu *.Mask)
      (net 6 "Net-(F2-Pad2)"))
    (pad 2 thru_hole circle (at 0 1.778 270) (size 2.5 2.5) (drill 1) (layers *.Cu *.Mask)
      (net 8 "Net-(F3-Pad2)"))
    (pad 3 thru_hole circle (at -5.207 -3.302 270) (size 2.5 2.5) (drill 1) (layers *.Cu *.Mask)
      (net 1 GND))
    (pad 3 thru_hole circle (at -5.207 1.778 270) (size 2.5 2.5) (drill 1) (layers *.Cu *.Mask)
      (net 1 GND))
    (pad 2 thru_hole circle (at 0 -3.302 270) (size 2.5 2.5) (drill 1) (layers *.Cu *.Mask)
      (net 8 "Net-(F3-Pad2)"))
  )

  (module Mounting_Holes:MountingHole_3.2mm_M3_Pad_Via (layer F.Cu) (tedit 580CC3AF) (tstamp 580BA92E)
    (at 102.997 133.985)
    (descr "Mounting Hole 3.2mm, M3")
    (tags "mounting hole 3.2mm m3")
    (fp_text reference REF** (at 0 -4.2) (layer F.SilkS)
      (effects (font (size 1 1) (thickness 0.15)))
    )
    (fp_text value MountingHole_3.2mm_M3_Pad_Via (at 0 5.842) (layer F.Fab)
      (effects (font (size 1 1) (thickness 0.15)))
    )
    (fp_circle (center 0 0) (end 3.2 0) (layer Cmts.User) (width 0.15))
    (fp_circle (center 0 0) (end 3.45 0) (layer F.CrtYd) (width 0.05))
    (pad 1 thru_hole circle (at 0 0) (size 6.4 6.4) (drill 3.2) (layers *.Cu *.Mask F.SilkS))
    (pad "" thru_hole circle (at 2.4 0) (size 0.6 0.6) (drill 0.5) (layers *.Cu *.Mask))
    (pad "" thru_hole circle (at 1.697056 1.697056) (size 0.6 0.6) (drill 0.5) (layers *.Cu *.Mask))
    (pad "" thru_hole circle (at 0 2.4) (size 0.6 0.6) (drill 0.5) (layers *.Cu *.Mask))
    (pad "" thru_hole circle (at -1.697056 1.697056) (size 0.6 0.6) (drill 0.5) (layers *.Cu *.Mask))
    (pad "" thru_hole circle (at -2.4 0) (size 0.6 0.6) (drill 0.5) (layers *.Cu *.Mask))
    (pad "" thru_hole circle (at -1.697056 -1.697056) (size 0.6 0.6) (drill 0.5) (layers *.Cu *.Mask))
    (pad "" thru_hole circle (at 0 -2.4) (size 0.6 0.6) (drill 0.5) (layers *.Cu *.Mask))
    (pad "" thru_hole circle (at 1.697056 -1.697056) (size 0.6 0.6) (drill 0.5) (layers *.Cu *.Mask))
  )

  (module Resistors_SMD:R_2010 (layer F.Cu) (tedit 5415D342) (tstamp 580BAE98)
    (at 113.792 95.631 270)
    (descr "Resistor SMD 2010, reflow soldering, Vishay (see dcrcw.pdf)")
    (tags "resistor 2010")
    (path /580BAB65)
    (attr smd)
    (fp_text reference R9 (at 0 -2.7 270) (layer F.SilkS)
      (effects (font (size 1 1) (thickness 0.15)))
    )
    (fp_text value 120 (at 0 2.7 270) (layer F.Fab)
      (effects (font (size 1 1) (thickness 0.15)))
    )
    (fp_line (start -3.25 -1.6) (end 3.25 -1.6) (layer F.CrtYd) (width 0.05))
    (fp_line (start -3.25 1.6) (end 3.25 1.6) (layer F.CrtYd) (width 0.05))
    (fp_line (start -3.25 -1.6) (end -3.25 1.6) (layer F.CrtYd) (width 0.05))
    (fp_line (start 3.25 -1.6) (end 3.25 1.6) (layer F.CrtYd) (width 0.05))
    (fp_line (start 1.95 1.475) (end -1.95 1.475) (layer F.SilkS) (width 0.15))
    (fp_line (start -1.95 -1.475) (end 1.95 -1.475) (layer F.SilkS) (width 0.15))
    (pad 1 smd rect (at -2.45 0 270) (size 1 2.5) (layers F.Cu F.Paste F.Mask)
      (net 8 "Net-(F3-Pad2)"))
    (pad 2 smd rect (at 2.45 0 270) (size 1 2.5) (layers F.Cu F.Paste F.Mask)
      (net 10 "Net-(JP2-Pad1)"))
    (model Resistors_SMD.3dshapes/R_2010.wrl
      (at (xyz 0 0 0))
      (scale (xyz 1 1 1))
      (rotate (xyz 0 0 0))
    )
  )

  (module Resistors_SMD:R_1206 (layer F.Cu) (tedit 5415CFA7) (tstamp 580BB333)
    (at 131.826 94.361 270)
    (descr "Resistor SMD 1206, reflow soldering, Vishay (see dcrcw.pdf)")
    (tags "resistor 1206")
    (path /580D1C3F)
    (attr smd)
    (fp_text reference R10 (at 0 -2.3 270) (layer F.SilkS)
      (effects (font (size 1 1) (thickness 0.15)))
    )
    (fp_text value 0 (at 0 2.3 270) (layer F.Fab)
      (effects (font (size 1 1) (thickness 0.15)))
    )
    (fp_line (start -2.2 -1.2) (end 2.2 -1.2) (layer F.CrtYd) (width 0.05))
    (fp_line (start -2.2 1.2) (end 2.2 1.2) (layer F.CrtYd) (width 0.05))
    (fp_line (start -2.2 -1.2) (end -2.2 1.2) (layer F.CrtYd) (width 0.05))
    (fp_line (start 2.2 -1.2) (end 2.2 1.2) (layer F.CrtYd) (width 0.05))
    (fp_line (start 1 1.075) (end -1 1.075) (layer F.SilkS) (width 0.15))
    (fp_line (start -1 -1.075) (end 1 -1.075) (layer F.SilkS) (width 0.15))
    (pad 1 smd rect (at -1.45 0 270) (size 0.9 1.7) (layers F.Cu F.Paste F.Mask)
      (net 18 "Net-(R10-Pad1)"))
    (pad 2 smd rect (at 1.45 0 270) (size 0.9 1.7) (layers F.Cu F.Paste F.Mask)
      (net 19 "Net-(R10-Pad2)"))
    (model Resistors_SMD.3dshapes/R_1206.wrl
      (at (xyz 0 0 0))
      (scale (xyz 1 1 1))
      (rotate (xyz 0 0 0))
    )
  )

  (module Resistors_SMD:R_1206 (layer F.Cu) (tedit 5415CFA7) (tstamp 580BB339)
    (at 134.874 94.361 270)
    (descr "Resistor SMD 1206, reflow soldering, Vishay (see dcrcw.pdf)")
    (tags "resistor 1206")
    (path /580D1B7A)
    (attr smd)
    (fp_text reference R11 (at 0 -2.3 270) (layer F.SilkS)
      (effects (font (size 1 1) (thickness 0.15)))
    )
    (fp_text value 0 (at 0 2.3 270) (layer F.Fab)
      (effects (font (size 1 1) (thickness 0.15)))
    )
    (fp_line (start -2.2 -1.2) (end 2.2 -1.2) (layer F.CrtYd) (width 0.05))
    (fp_line (start -2.2 1.2) (end 2.2 1.2) (layer F.CrtYd) (width 0.05))
    (fp_line (start -2.2 -1.2) (end -2.2 1.2) (layer F.CrtYd) (width 0.05))
    (fp_line (start 2.2 -1.2) (end 2.2 1.2) (layer F.CrtYd) (width 0.05))
    (fp_line (start 1 1.075) (end -1 1.075) (layer F.SilkS) (width 0.15))
    (fp_line (start -1 -1.075) (end 1 -1.075) (layer F.SilkS) (width 0.15))
    (pad 1 smd rect (at -1.45 0 270) (size 0.9 1.7) (layers F.Cu F.Paste F.Mask)
      (net 17 "Net-(R11-Pad1)"))
    (pad 2 smd rect (at 1.45 0 270) (size 0.9 1.7) (layers F.Cu F.Paste F.Mask)
      (net 16 "Net-(R11-Pad2)"))
    (model Resistors_SMD.3dshapes/R_1206.wrl
      (at (xyz 0 0 0))
      (scale (xyz 1 1 1))
      (rotate (xyz 0 0 0))
    )
  )

  (module Mounting_Holes:MountingHole_3.2mm_M3_Pad_Via (layer F.Cu) (tedit 56DDBCCA) (tstamp 580BB3D2)
    (at 102.997 72.136)
    (descr "Mounting Hole 3.2mm, M3")
    (tags "mounting hole 3.2mm m3")
    (fp_text reference REF** (at 0 -4.2) (layer F.SilkS)
      (effects (font (size 1 1) (thickness 0.15)))
    )
    (fp_text value MountingHole_3.2mm_M3_Pad_Via (at 0 4.2) (layer F.Fab)
      (effects (font (size 1 1) (thickness 0.15)))
    )
    (fp_circle (center 0 0) (end 3.2 0) (layer Cmts.User) (width 0.15))
    (fp_circle (center 0 0) (end 3.45 0) (layer F.CrtYd) (width 0.05))
    (pad 1 thru_hole circle (at 0 0) (size 6.4 6.4) (drill 3.2) (layers *.Cu *.Mask F.SilkS))
    (pad "" thru_hole circle (at 2.4 0) (size 0.6 0.6) (drill 0.5) (layers *.Cu *.Mask))
    (pad "" thru_hole circle (at 1.697056 1.697056) (size 0.6 0.6) (drill 0.5) (layers *.Cu *.Mask))
    (pad "" thru_hole circle (at 0 2.4) (size 0.6 0.6) (drill 0.5) (layers *.Cu *.Mask))
    (pad "" thru_hole circle (at -1.697056 1.697056) (size 0.6 0.6) (drill 0.5) (layers *.Cu *.Mask))
    (pad "" thru_hole circle (at -2.4 0) (size 0.6 0.6) (drill 0.5) (layers *.Cu *.Mask))
    (pad "" thru_hole circle (at -1.697056 -1.697056) (size 0.6 0.6) (drill 0.5) (layers *.Cu *.Mask))
    (pad "" thru_hole circle (at 0 -2.4) (size 0.6 0.6) (drill 0.5) (layers *.Cu *.Mask))
    (pad "" thru_hole circle (at 1.697056 -1.697056) (size 0.6 0.6) (drill 0.5) (layers *.Cu *.Mask))
  )

  (module Mounting_Holes:MountingHole_3.2mm_M3_Pad_Via (layer F.Cu) (tedit 580CC3B4) (tstamp 580BB407)
    (at 147.701 133.985)
    (descr "Mounting Hole 3.2mm, M3")
    (tags "mounting hole 3.2mm m3")
    (fp_text reference REF** (at 0 -4.2) (layer F.SilkS)
      (effects (font (size 1 1) (thickness 0.15)))
    )
    (fp_text value MountingHole_3.2mm_M3_Pad_Via (at 0 5.715) (layer F.Fab)
      (effects (font (size 1 1) (thickness 0.15)))
    )
    (fp_circle (center 0 0) (end 3.2 0) (layer Cmts.User) (width 0.15))
    (fp_circle (center 0 0) (end 3.45 0) (layer F.CrtYd) (width 0.05))
    (pad 1 thru_hole circle (at 0 0) (size 6.4 6.4) (drill 3.2) (layers *.Cu *.Mask F.SilkS))
    (pad "" thru_hole circle (at 2.4 0) (size 0.6 0.6) (drill 0.5) (layers *.Cu *.Mask))
    (pad "" thru_hole circle (at 1.697056 1.697056) (size 0.6 0.6) (drill 0.5) (layers *.Cu *.Mask))
    (pad "" thru_hole circle (at 0 2.4) (size 0.6 0.6) (drill 0.5) (layers *.Cu *.Mask))
    (pad "" thru_hole circle (at -1.697056 1.697056) (size 0.6 0.6) (drill 0.5) (layers *.Cu *.Mask))
    (pad "" thru_hole circle (at -2.4 0) (size 0.6 0.6) (drill 0.5) (layers *.Cu *.Mask))
    (pad "" thru_hole circle (at -1.697056 -1.697056) (size 0.6 0.6) (drill 0.5) (layers *.Cu *.Mask))
    (pad "" thru_hole circle (at 0 -2.4) (size 0.6 0.6) (drill 0.5) (layers *.Cu *.Mask))
    (pad "" thru_hole circle (at 1.697056 -1.697056) (size 0.6 0.6) (drill 0.5) (layers *.Cu *.Mask))
  )

  (module Mounting_Holes:MountingHole_3.2mm_M3_Pad_Via (layer F.Cu) (tedit 56DDBCCA) (tstamp 580BB463)
    (at 147.701 72.136)
    (descr "Mounting Hole 3.2mm, M3")
    (tags "mounting hole 3.2mm m3")
    (fp_text reference REF** (at 0 -4.2) (layer F.SilkS)
      (effects (font (size 1 1) (thickness 0.15)))
    )
    (fp_text value MountingHole_3.2mm_M3_Pad_Via (at 0 4.2) (layer F.Fab)
      (effects (font (size 1 1) (thickness 0.15)))
    )
    (fp_circle (center 0 0) (end 3.2 0) (layer Cmts.User) (width 0.15))
    (fp_circle (center 0 0) (end 3.45 0) (layer F.CrtYd) (width 0.05))
    (pad 1 thru_hole circle (at 0 0) (size 6.4 6.4) (drill 3.2) (layers *.Cu *.Mask F.SilkS))
    (pad "" thru_hole circle (at 2.4 0) (size 0.6 0.6) (drill 0.5) (layers *.Cu *.Mask))
    (pad "" thru_hole circle (at 1.697056 1.697056) (size 0.6 0.6) (drill 0.5) (layers *.Cu *.Mask))
    (pad "" thru_hole circle (at 0 2.4) (size 0.6 0.6) (drill 0.5) (layers *.Cu *.Mask))
    (pad "" thru_hole circle (at -1.697056 1.697056) (size 0.6 0.6) (drill 0.5) (layers *.Cu *.Mask))
    (pad "" thru_hole circle (at -2.4 0) (size 0.6 0.6) (drill 0.5) (layers *.Cu *.Mask))
    (pad "" thru_hole circle (at -1.697056 -1.697056) (size 0.6 0.6) (drill 0.5) (layers *.Cu *.Mask))
    (pad "" thru_hole circle (at 0 -2.4) (size 0.6 0.6) (drill 0.5) (layers *.Cu *.Mask))
    (pad "" thru_hole circle (at 1.697056 -1.697056) (size 0.6 0.6) (drill 0.5) (layers *.Cu *.Mask))
  )

  (module Resistors_SMD:R_1206 (layer F.Cu) (tedit 5415CFA7) (tstamp 580C75D2)
    (at 113.792 88.9 90)
    (descr "Resistor SMD 1206, reflow soldering, Vishay (see dcrcw.pdf)")
    (tags "resistor 1206")
    (path /580C9336)
    (attr smd)
    (fp_text reference R12 (at 0 -2.3 90) (layer F.SilkS)
      (effects (font (size 1 1) (thickness 0.15)))
    )
    (fp_text value 1K (at 0 2.3 90) (layer F.Fab)
      (effects (font (size 1 1) (thickness 0.15)))
    )
    (fp_line (start -2.2 -1.2) (end 2.2 -1.2) (layer F.CrtYd) (width 0.05))
    (fp_line (start -2.2 1.2) (end 2.2 1.2) (layer F.CrtYd) (width 0.05))
    (fp_line (start -2.2 -1.2) (end -2.2 1.2) (layer F.CrtYd) (width 0.05))
    (fp_line (start 2.2 -1.2) (end 2.2 1.2) (layer F.CrtYd) (width 0.05))
    (fp_line (start 1 1.075) (end -1 1.075) (layer F.SilkS) (width 0.15))
    (fp_line (start -1 -1.075) (end 1 -1.075) (layer F.SilkS) (width 0.15))
    (pad 1 smd rect (at -1.45 0 90) (size 0.9 1.7) (layers F.Cu F.Paste F.Mask)
      (net 8 "Net-(F3-Pad2)"))
    (pad 2 smd rect (at 1.45 0 90) (size 0.9 1.7) (layers F.Cu F.Paste F.Mask)
      (net 2 +3V3))
    (model Resistors_SMD.3dshapes/R_1206.wrl
      (at (xyz 0 0 0))
      (scale (xyz 1 1 1))
      (rotate (xyz 0 0 0))
    )
  )

  (module Resistors_SMD:R_1206 (layer F.Cu) (tedit 5415CFA7) (tstamp 580C75D8)
    (at 115.951 106.68 90)
    (descr "Resistor SMD 1206, reflow soldering, Vishay (see dcrcw.pdf)")
    (tags "resistor 1206")
    (path /580CA0E9)
    (attr smd)
    (fp_text reference R13 (at 0 -2.3 90) (layer F.SilkS)
      (effects (font (size 1 1) (thickness 0.15)))
    )
    (fp_text value 1K (at 0 2.3 90) (layer F.Fab)
      (effects (font (size 1 1) (thickness 0.15)))
    )
    (fp_line (start -2.2 -1.2) (end 2.2 -1.2) (layer F.CrtYd) (width 0.05))
    (fp_line (start -2.2 1.2) (end 2.2 1.2) (layer F.CrtYd) (width 0.05))
    (fp_line (start -2.2 -1.2) (end -2.2 1.2) (layer F.CrtYd) (width 0.05))
    (fp_line (start 2.2 -1.2) (end 2.2 1.2) (layer F.CrtYd) (width 0.05))
    (fp_line (start 1 1.075) (end -1 1.075) (layer F.SilkS) (width 0.15))
    (fp_line (start -1 -1.075) (end 1 -1.075) (layer F.SilkS) (width 0.15))
    (pad 1 smd rect (at -1.45 0 90) (size 0.9 1.7) (layers F.Cu F.Paste F.Mask)
      (net 1 GND))
    (pad 2 smd rect (at 1.45 0 90) (size 0.9 1.7) (layers F.Cu F.Paste F.Mask)
      (net 6 "Net-(F2-Pad2)"))
    (model Resistors_SMD.3dshapes/R_1206.wrl
      (at (xyz 0 0 0))
      (scale (xyz 1 1 1))
      (rotate (xyz 0 0 0))
    )
  )

  (module Resistors_SMD:R_1206 (layer F.Cu) (tedit 5415CFA7) (tstamp 580C7A4B)
    (at 143.383 98.806 180)
    (descr "Resistor SMD 1206, reflow soldering, Vishay (see dcrcw.pdf)")
    (tags "resistor 1206")
    (path /580CB692)
    (attr smd)
    (fp_text reference R14 (at 0 -2.3 180) (layer F.SilkS)
      (effects (font (size 1 1) (thickness 0.15)))
    )
    (fp_text value 0 (at 0 2.3 180) (layer F.Fab)
      (effects (font (size 1 1) (thickness 0.15)))
    )
    (fp_line (start -2.2 -1.2) (end 2.2 -1.2) (layer F.CrtYd) (width 0.05))
    (fp_line (start -2.2 1.2) (end 2.2 1.2) (layer F.CrtYd) (width 0.05))
    (fp_line (start -2.2 -1.2) (end -2.2 1.2) (layer F.CrtYd) (width 0.05))
    (fp_line (start 2.2 -1.2) (end 2.2 1.2) (layer F.CrtYd) (width 0.05))
    (fp_line (start 1 1.075) (end -1 1.075) (layer F.SilkS) (width 0.15))
    (fp_line (start -1 -1.075) (end 1 -1.075) (layer F.SilkS) (width 0.15))
    (pad 1 smd rect (at -1.45 0 180) (size 0.9 1.7) (layers F.Cu F.Paste F.Mask)
      (net 2 +3V3))
    (pad 2 smd rect (at 1.45 0 180) (size 0.9 1.7) (layers F.Cu F.Paste F.Mask)
      (net 2 +3V3))
    (model Resistors_SMD.3dshapes/R_1206.wrl
      (at (xyz 0 0 0))
      (scale (xyz 1 1 1))
      (rotate (xyz 0 0 0))
    )
  )

  (module SMD_Packages:SOIC-8-N (layer F.Cu) (tedit 0) (tstamp 580C8253)
    (at 128.524 99.441 90)
    (descr "Module Narrow CMS SOJ 8 pins large")
    (tags "CMS SOJ")
    (path /580B5509)
    (attr smd)
    (fp_text reference U3 (at 0 -1.27 90) (layer F.SilkS)
      (effects (font (size 1 1) (thickness 0.15)))
    )
    (fp_text value AD3485 (at 0 1.27 90) (layer F.Fab)
      (effects (font (size 1 1) (thickness 0.15)))
    )
    (fp_line (start -2.54 -2.286) (end 2.54 -2.286) (layer F.SilkS) (width 0.15))
    (fp_line (start 2.54 -2.286) (end 2.54 2.286) (layer F.SilkS) (width 0.15))
    (fp_line (start 2.54 2.286) (end -2.54 2.286) (layer F.SilkS) (width 0.15))
    (fp_line (start -2.54 2.286) (end -2.54 -2.286) (layer F.SilkS) (width 0.15))
    (fp_line (start -2.54 -0.762) (end -2.032 -0.762) (layer F.SilkS) (width 0.15))
    (fp_line (start -2.032 -0.762) (end -2.032 0.508) (layer F.SilkS) (width 0.15))
    (fp_line (start -2.032 0.508) (end -2.54 0.508) (layer F.SilkS) (width 0.15))
    (pad 8 smd rect (at -1.905 -3.175 90) (size 0.508 1.143) (layers F.Cu F.Paste F.Mask)
      (net 2 +3V3))
    (pad 7 smd rect (at -0.635 -3.175 90) (size 0.508 1.143) (layers F.Cu F.Paste F.Mask)
      (net 5 "Net-(F2-Pad1)"))
    (pad 6 smd rect (at 0.635 -3.175 90) (size 0.508 1.143) (layers F.Cu F.Paste F.Mask)
      (net 7 "Net-(F3-Pad1)"))
    (pad 5 smd rect (at 1.905 -3.175 90) (size 0.508 1.143) (layers F.Cu F.Paste F.Mask)
      (net 1 GND))
    (pad 4 smd rect (at 1.905 3.175 90) (size 0.508 1.143) (layers F.Cu F.Paste F.Mask)
      (net 16 "Net-(R11-Pad2)"))
    (pad 3 smd rect (at 0.635 3.175 90) (size 0.508 1.143) (layers F.Cu F.Paste F.Mask)
      (net 19 "Net-(R10-Pad2)"))
    (pad 2 smd rect (at -0.635 3.175 90) (size 0.508 1.143) (layers F.Cu F.Paste F.Mask)
      (net 19 "Net-(R10-Pad2)"))
    (pad 1 smd rect (at -1.905 3.175 90) (size 0.508 1.143) (layers F.Cu F.Paste F.Mask)
      (net 20 "Net-(U2-Pad7)"))
    (model SMD_Packages.3dshapes/SOIC-8-N.wrl
      (at (xyz 0 0 0))
      (scale (xyz 0.5 0.38 0.5))
      (rotate (xyz 0 0 0))
    )
  )

  (gr_line (start 98.933 67.818) (end 98.933 138.176) (angle 90) (layer Edge.Cuts) (width 0.15))
  (gr_line (start 152.019 67.818) (end 152.019 138.176) (angle 90) (layer Edge.Cuts) (width 0.15))
  (gr_line (start 152.019 138.176) (end 98.933 138.176) (angle 90) (layer Edge.Cuts) (width 0.15))
  (gr_line (start 152.019 67.818) (end 98.933 67.818) (angle 90) (layer Edge.Cuts) (width 0.15))

  (segment (start 137.795 105.9815) (end 140.6925 105.9815) (width 0.8) (layer F.Cu) (net 1))
  (segment (start 140.6925 105.9815) (end 144.185 109.474) (width 0.8) (layer F.Cu) (net 1) (tstamp 580E33ED))
  (segment (start 144.185 109.474) (end 120.396 109.474) (width 0.8) (layer F.Cu) (net 1))
  (segment (start 120.396 109.474) (end 119.052 108.13) (width 0.8) (layer F.Cu) (net 1) (tstamp 580E33E8))
  (segment (start 119.052 108.13) (end 115.951 108.13) (width 0.8) (layer F.Cu) (net 1) (tstamp 580E33E9))
  (segment (start 143.383 94.107) (end 143.383 108.672) (width 0.8) (layer F.Cu) (net 1))
  (segment (start 143.383 108.672) (end 144.185 109.474) (width 0.8) (layer F.Cu) (net 1) (tstamp 580DADF9))
  (segment (start 143.383 94.361) (end 143.383 96.647) (width 0.8) (layer F.Cu) (net 1))
  (segment (start 143.383 96.647) (end 140.409 96.647) (width 0.8) (layer F.Cu) (net 1) (tstamp 580DAC7C))
  (segment (start 140.409 96.647) (end 139.573 95.811) (width 0.8) (layer F.Cu) (net 1) (tstamp 580DAC7D))
  (segment (start 143.383 94.361) (end 143.383 91.44) (width 0.8) (layer F.Cu) (net 1))
  (segment (start 143.383 91.44) (end 142.001 90.058) (width 0.8) (layer F.Cu) (net 1) (tstamp 580DABFF))
  (segment (start 142.001 90.058) (end 138.826 90.058) (width 0.8) (layer F.Cu) (net 1) (tstamp 580DAC00))
  (segment (start 148.844 94.361) (end 148.844 89.154) (width 0.8) (layer F.Cu) (net 1))
  (segment (start 148.844 89.154) (end 147.574 87.884) (width 0.8) (layer F.Cu) (net 1) (tstamp 580DAA8C))
  (segment (start 108.585 92.583) (end 108.585 91.186) (width 0.8) (layer F.Cu) (net 1))
  (segment (start 108.585 91.186) (end 110.871 88.9) (width 0.8) (layer F.Cu) (net 1) (tstamp 580DA9F7))
  (segment (start 143.51 96.647) (end 140.409 96.647) (width 0.8) (layer F.Cu) (net 1))
  (segment (start 140.409 96.647) (end 139.573 95.811) (width 0.8) (layer F.Cu) (net 1) (tstamp 580DA9B4))
  (segment (start 125.349 97.536) (end 125.349 94.107) (width 0.8) (layer F.Cu) (net 1))
  (segment (start 123.698 92.456) (end 122.174 92.456) (width 0.8) (layer F.Cu) (net 1) (tstamp 580D0CC7))
  (segment (start 125.349 94.107) (end 123.698 92.456) (width 0.8) (layer F.Cu) (net 1) (tstamp 580D0CC6))
  (segment (start 109.093 78.56) (end 107.495 78.56) (width 0.8) (layer F.Cu) (net 1))
  (segment (start 106.045 80.01) (end 106.045 82.804) (width 0.8) (layer F.Cu) (net 1) (tstamp 580D090B))
  (segment (start 107.495 78.56) (end 106.045 80.01) (width 0.8) (layer F.Cu) (net 1) (tstamp 580D090A))
  (segment (start 109.093 78.56) (end 109.093 77.724) (width 0.8) (layer F.Cu) (net 1))
  (segment (start 109.093 77.724) (end 110.871 75.946) (width 0.8) (layer F.Cu) (net 1) (tstamp 580D0907))
  (segment (start 106.045 82.804) (end 106.045 92.583) (width 0.8) (layer F.Cu) (net 1) (tstamp 580D090E))
  (segment (start 113.411 88.9) (end 110.871 88.9) (width 0.8) (layer F.Cu) (net 1))
  (segment (start 108.585 92.583) (end 108.585 92.456) (width 0.8) (layer F.Cu) (net 1))
  (segment (start 110.363 106.68) (end 107.315 106.68) (width 0.8) (layer F.Cu) (net 1))
  (segment (start 111.887 107.95) (end 110.617 106.68) (width 0.8) (layer F.Cu) (net 1) (tstamp 580CFCD8))
  (segment (start 117.094 107.95) (end 111.887 107.95) (width 0.8) (layer F.Cu) (net 1) (tstamp 580D0171))
  (segment (start 110.363 106.68) (end 110.617 106.68) (width 0.8) (layer F.Cu) (net 1) (tstamp 580D06ED))
  (segment (start 107.315 106.68) (end 106.045 105.41) (width 0.8) (layer F.Cu) (net 1) (tstamp 580D06EF))
  (segment (start 106.045 105.41) (end 106.045 92.583) (width 0.8) (layer F.Cu) (net 1) (tstamp 580D06F0))
  (segment (start 106.045 92.583) (end 106.045 92.71) (width 0.8) (layer F.Cu) (net 1) (tstamp 580D06F1))
  (segment (start 106.045 92.71) (end 106.045 92.583) (width 0.8) (layer F.Cu) (net 1) (tstamp 580D06F3))
  (segment (start 103.505 92.583) (end 106.045 92.583) (width 0.8) (layer F.Cu) (net 1))
  (segment (start 106.045 92.583) (end 108.585 92.583) (width 0.8) (layer F.Cu) (net 1) (tstamp 580D06F4))
  (segment (start 122.174 92.456) (end 121.412 92.456) (width 0.8) (layer F.Cu) (net 1) (tstamp 580D0CCA))
  (segment (start 103.505 92.583) (end 104.267 92.456) (width 0.8) (layer F.Cu) (net 1) (status 10))
  (segment (start 115.951 108.13) (end 116.914 108.13) (width 0.8) (layer F.Cu) (net 1))
  (segment (start 116.914 108.13) (end 117.094 107.95) (width 0.8) (layer F.Cu) (net 1) (tstamp 580D016E))
  (segment (start 114.681 88.9) (end 115.697 88.9) (width 0.8) (layer F.Cu) (net 1))
  (segment (start 115.697 88.9) (end 119.253 92.456) (width 0.8) (layer F.Cu) (net 1) (tstamp 580CFEF2))
  (segment (start 119.253 92.456) (end 121.412 92.456) (width 0.8) (layer F.Cu) (net 1) (tstamp 580CFEF3))
  (segment (start 143.383 96.647) (end 143.51 96.647) (width 0.8) (layer F.Cu) (net 1))
  (segment (start 143.51 96.647) (end 147.828 96.647) (width 0.8) (layer F.Cu) (net 1) (tstamp 580DA9B2))
  (segment (start 147.701 87.884) (end 147.574 87.884) (width 0.8) (layer F.Cu) (net 1) (tstamp 580CE4ED) (status 20))
  (segment (start 147.828 96.647) (end 148.844 95.631) (width 0.8) (layer F.Cu) (net 1) (tstamp 580CEDA2))
  (segment (start 148.844 95.631) (end 148.844 94.361) (width 0.8) (layer F.Cu) (net 1) (tstamp 580CEDA3))
  (segment (start 143.383 96.647) (end 143.383 99.515) (width 0.8) (layer F.Cu) (net 1) (tstamp 580CEDA0))
  (segment (start 143.383 99.515) (end 143.383 99.314) (width 0.8) (layer F.Cu) (net 1) (tstamp 580CE496))
  (segment (start 143.383 99.314) (end 143.383 99.515) (width 0.8) (layer F.Cu) (net 1) (tstamp 580CE49C))
  (segment (start 143.383 91.44) (end 142.001 90.058) (width 0.8) (layer F.Cu) (net 1) (tstamp 580CE48E))
  (segment (start 142.001 90.058) (end 138.826 90.058) (width 0.8) (layer F.Cu) (net 1) (tstamp 580CE48F))
  (segment (start 142.001 90.058) (end 138.826 90.058) (width 0.8) (layer F.Cu) (net 1) (tstamp 580CE33E))
  (segment (start 138.826 90.058) (end 139.969 90.058) (width 0.8) (layer F.Cu) (net 1) (status 30))
  (segment (start 108.458 92.456) (end 108.585 92.583) (width 0.8) (layer F.Cu) (net 1) (tstamp 580C77A3) (status 30))
  (segment (start 102.997 92.71) (end 103.505 92.583) (width 0.9) (layer F.Cu) (net 1) (tstamp 580C5AA7) (status 30))
  (segment (start 108.638 92.53) (end 108.585 92.583) (width 0.9) (layer F.Cu) (net 1) (tstamp 580BB1C4) (status 30))
  (segment (start 115.824 88.9) (end 114.681 88.9) (width 0.8) (layer F.Cu) (net 1) (tstamp 580CE143))
  (segment (start 114.681 88.9) (end 113.411 88.9) (width 0.8) (layer F.Cu) (net 1) (tstamp 580CFEF0))
  (segment (start 113.411 88.9) (end 113.157 88.9) (width 0.8) (layer F.Cu) (net 1) (tstamp 580D085E))
  (segment (start 115.824 88.9) (end 113.157 88.9) (width 0.8) (layer F.Cu) (net 1) (tstamp 580CDF41))
  (segment (start 108.712 92.837) (end 109.257 92.292) (width 0.8) (layer F.Cu) (net 1) (tstamp 580C5B9B) (status 30))
  (segment (start 122.809 105.9815) (end 125.4125 105.9815) (width 0.8) (layer B.Cu) (net 2) (status 400000))
  (segment (start 146.685 106.172) (end 146.685 109.474) (width 0.8) (layer B.Cu) (net 2) (tstamp 580E34CC) (status 800000))
  (segment (start 146.685 98.806) (end 146.685 106.172) (width 0.8) (layer B.Cu) (net 2) (tstamp 580E34C9))
  (segment (start 138.938 98.806) (end 146.685 98.806) (width 0.8) (layer B.Cu) (net 2) (tstamp 580E34C6))
  (segment (start 133.858 103.886) (end 138.938 98.806) (width 0.8) (layer B.Cu) (net 2) (tstamp 580E34C3))
  (segment (start 127.508 103.886) (end 133.858 103.886) (width 0.8) (layer B.Cu) (net 2) (tstamp 580E34C2))
  (segment (start 125.4125 105.9815) (end 127.508 103.886) (width 0.8) (layer B.Cu) (net 2) (tstamp 580E34BF))
  (segment (start 127.508 103.886) (end 130.429 103.886) (width 0.8) (layer F.Cu) (net 2))
  (segment (start 122.809 105.9815) (end 125.4125 105.9815) (width 0.8) (layer F.Cu) (net 2))
  (segment (start 127.508 103.886) (end 127.508 101.854) (width 0.8) (layer F.Cu) (net 2) (tstamp 580E33F1))
  (segment (start 125.4125 105.9815) (end 127.508 103.886) (width 0.8) (layer F.Cu) (net 2) (tstamp 580E33F0))
  (segment (start 146.685 109.474) (end 146.685 98.806) (width 0.8) (layer F.Cu) (net 2) (status 10))
  (segment (start 150.495 93.472) (end 150.495 91.26) (width 0.8) (layer F.Cu) (net 2))
  (segment (start 150.495 91.26) (end 150.294 91.059) (width 0.8) (layer F.Cu) (net 2) (tstamp 580DACAC))
  (segment (start 141.933 98.806) (end 138.938 98.806) (width 0.8) (layer F.Cu) (net 2))
  (segment (start 130.429 103.886) (end 133.858 103.886) (width 0.8) (layer F.Cu) (net 2) (tstamp 580E33F8))
  (segment (start 138.557 99.187) (end 133.858 103.886) (width 0.8) (layer F.Cu) (net 2) (tstamp 580DAC5F))
  (segment (start 138.938 98.806) (end 138.557 99.187) (width 0.8) (layer F.Cu) (net 2) (tstamp 580DAC50))
  (segment (start 146.685 98.806) (end 146.685 98.933) (width 0.8) (layer F.Cu) (net 2) (tstamp 580DAC46))
  (segment (start 146.685 98.933) (end 146.685 98.806) (width 0.8) (layer F.Cu) (net 2) (tstamp 580DAC48))
  (segment (start 144.833 98.806) (end 146.685 98.806) (width 0.8) (layer F.Cu) (net 2))
  (segment (start 146.685 98.806) (end 148.717 98.806) (width 0.8) (layer F.Cu) (net 2) (tstamp 580DAC49))
  (segment (start 148.717 98.806) (end 150.495 97.028) (width 0.8) (layer F.Cu) (net 2) (tstamp 580DAC3D))
  (segment (start 150.495 97.028) (end 150.495 94.615) (width 0.8) (layer F.Cu) (net 2) (tstamp 580DAC3E))
  (segment (start 147.574 80.264) (end 149.225 80.264) (width 0.8) (layer F.Cu) (net 2))
  (segment (start 150.495 83.82) (end 150.495 81.534) (width 0.8) (layer F.Cu) (net 2))
  (segment (start 150.495 97.028) (end 150.495 94.615) (width 0.8) (layer F.Cu) (net 2) (tstamp 580DAB92))
  (segment (start 150.495 94.615) (end 150.495 93.472) (width 0.8) (layer F.Cu) (net 2) (tstamp 580DAC43))
  (segment (start 150.495 93.472) (end 150.495 90.17) (width 0.8) (layer F.Cu) (net 2) (tstamp 580DACAA))
  (segment (start 150.495 90.17) (end 150.495 83.82) (width 0.8) (layer F.Cu) (net 2) (tstamp 580DABDD))
  (segment (start 149.225 80.264) (end 150.495 81.534) (width 0.8) (layer F.Cu) (net 2) (tstamp 580DAA84))
  (segment (start 121.524 90.058) (end 125.745 90.058) (width 0.8) (layer F.Cu) (net 2))
  (segment (start 127.508 91.821) (end 127.508 98.044) (width 0.8) (layer F.Cu) (net 2) (tstamp 580D0C4E))
  (segment (start 125.745 90.058) (end 127.508 91.821) (width 0.8) (layer F.Cu) (net 2) (tstamp 580D0C4B))
  (segment (start 127.508 98.044) (end 127.508 101.854) (width 0.8) (layer F.Cu) (net 2))
  (segment (start 109.093 87.122) (end 111.125 87.122) (width 0.8) (layer F.Cu) (net 2))
  (segment (start 112.141 86.106) (end 113.792 86.106) (width 0.8) (layer F.Cu) (net 2) (tstamp 580D0923))
  (segment (start 111.125 87.122) (end 112.141 86.106) (width 0.8) (layer F.Cu) (net 2) (tstamp 580D0922))
  (segment (start 125.349 101.346) (end 127.508 101.346) (width 0.8) (layer F.Cu) (net 2))
  (segment (start 127.508 101.346) (end 127.254 101.346) (width 0.8) (layer F.Cu) (net 2) (tstamp 580D060A))
  (segment (start 127.254 101.346) (end 127.508 101.346) (width 0.8) (layer F.Cu) (net 2) (tstamp 580D060C))
  (segment (start 127.508 101.346) (end 127.508 98.044) (width 0.8) (layer F.Cu) (net 2) (tstamp 580D060D))
  (segment (start 113.792 84.762) (end 113.792 86.106) (width 0.8) (layer F.Cu) (net 2))
  (segment (start 113.792 86.106) (end 113.792 87.45) (width 0.8) (layer F.Cu) (net 2) (tstamp 580D0926))
  (segment (start 117.221 84.762) (end 113.509 84.762) (width 0.8) (layer F.Cu) (net 2))
  (segment (start 116.766 84.762) (end 117.221 84.762) (width 0.8) (layer F.Cu) (net 2) (tstamp 580CE294) (status 30))
  (segment (start 121.524 90.058) (end 119.395 90.058) (width 0.8) (layer F.Cu) (net 2))
  (segment (start 119.395 90.058) (end 117.221 87.884) (width 0.8) (layer F.Cu) (net 2) (tstamp 580CE1BE))
  (segment (start 117.221 87.884) (end 117.221 84.762) (width 0.8) (layer F.Cu) (net 2) (tstamp 580CE1BF) (status 20))
  (segment (start 122.047 90.581) (end 121.524 90.058) (width 0.8) (layer F.Cu) (net 2) (tstamp 580CDFEE) (status 30))
  (segment (start 121.524 90.058) (end 119.776 90.058) (width 0.8) (layer F.Cu) (net 2) (status 30))
  (segment (start 125.349 101.346) (end 124.841 101.346) (width 0.8) (layer F.Cu) (net 2) (status 30))
  (segment (start 109.093 123.698) (end 111.633 123.698) (width 2) (layer F.Cu) (net 3))
  (segment (start 114.681 126.746) (end 114.681 130.048) (width 2) (layer F.Cu) (net 3) (tstamp 580D0791))
  (segment (start 111.633 123.698) (end 114.681 126.746) (width 2) (layer F.Cu) (net 3) (tstamp 580D0790))
  (segment (start 114.681 135.048) (end 127.7455 135.048) (width 2) (layer F.Cu) (net 4))
  (segment (start 127.7455 135.048) (end 127.762 135.0645) (width 2) (layer F.Cu) (net 4) (tstamp 580D0AD6))
  (segment (start 125.349 100.076) (end 123.9393 100.076) (width 0.8) (layer F.Cu) (net 5))
  (segment (start 123.9393 100.076) (end 122.6693 101.346) (width 0.8) (layer F.Cu) (net 5) (tstamp 580D0726))
  (segment (start 103.505 102.997) (end 108.585 102.997) (width 0.8) (layer B.Cu) (net 6) (status C00000))
  (segment (start 113.792 103.505) (end 115.7097 103.505) (width 0.8) (layer F.Cu) (net 6))
  (segment (start 115.7097 103.505) (end 117.8687 101.346) (width 0.8) (layer F.Cu) (net 6) (tstamp 580D0738))
  (segment (start 113.792 103.505) (end 115.951 103.505) (width 0.8) (layer F.Cu) (net 6))
  (segment (start 115.951 103.505) (end 115.9637 103.505) (width 0.8) (layer F.Cu) (net 6) (tstamp 580D06E4))
  (segment (start 113.792 103.505) (end 109.093 103.505) (width 0.8) (layer F.Cu) (net 6))
  (segment (start 109.093 103.505) (end 108.585 102.997) (width 0.8) (layer F.Cu) (net 6) (tstamp 580D06E1))
  (segment (start 109.22 103.632) (end 108.585 102.997) (width 0.8) (layer F.Cu) (net 6) (tstamp 580D0405) (status 30))
  (segment (start 115.9637 103.505) (end 115.951 103.505) (width 0.8) (layer F.Cu) (net 6) (tstamp 580D0400))
  (segment (start 115.951 103.505) (end 115.9637 103.505) (width 0.8) (layer F.Cu) (net 6) (tstamp 580D0402))
  (segment (start 115.9637 103.505) (end 115.9637 105.2173) (width 0.8) (layer F.Cu) (net 6) (tstamp 580D0403) (status 10))
  (segment (start 115.9637 105.2173) (end 115.951 105.23) (width 0.8) (layer F.Cu) (net 6) (tstamp 580D0168))
  (segment (start 108.712 103.452) (end 108.913 103.325) (width 0.8) (layer F.Cu) (net 6) (status 30))
  (segment (start 108.913 103.325) (end 108.585 102.997) (width 0.8) (layer F.Cu) (net 6) (tstamp 580C75FD) (status 30))
  (segment (start 109.093 103.505) (end 108.585 102.997) (width 0.8) (layer F.Cu) (net 6) (tstamp 580C5AD9) (status 30))
  (segment (start 108.585 102.997) (end 108.458 103.124) (width 1) (layer F.Cu) (net 6) (tstamp 580BAF08) (status 30))
  (segment (start 125.349 98.806) (end 123.825 98.806) (width 0.8) (layer F.Cu) (net 7))
  (segment (start 122.5423 97.5233) (end 122.5423 96.012) (width 0.8) (layer F.Cu) (net 7) (tstamp 580DB005))
  (segment (start 123.825 98.806) (end 122.5423 97.5233) (width 0.8) (layer F.Cu) (net 7) (tstamp 580DB004))
  (segment (start 103.505 97.79) (end 108.585 97.79) (width 0.8) (layer B.Cu) (net 8) (status C00000))
  (segment (start 113.792 93.181) (end 116.168 93.181) (width 0.8) (layer F.Cu) (net 8))
  (segment (start 116.168 93.181) (end 117.7417 94.7547) (width 0.8) (layer F.Cu) (net 8) (tstamp 580DAFF9))
  (segment (start 117.7417 94.7547) (end 117.7417 96.012) (width 0.8) (layer F.Cu) (net 8) (tstamp 580DAFFA))
  (segment (start 113.792 93.181) (end 113.792 94.181) (width 0.8) (layer F.Cu) (net 8))
  (segment (start 108.585 97.79) (end 108.585 97.282) (width 0.8) (layer F.Cu) (net 8))
  (segment (start 108.585 97.282) (end 112.686 93.181) (width 0.8) (layer F.Cu) (net 8) (tstamp 580D06D9))
  (segment (start 112.686 93.181) (end 113.792 93.181) (width 0.8) (layer F.Cu) (net 8) (tstamp 580D06DA))
  (segment (start 108.585 97.79) (end 108.585 97.536) (width 0.8) (layer F.Cu) (net 8))
  (segment (start 113.792 93.181) (end 113.792 90.35) (width 0.8) (layer F.Cu) (net 8) (tstamp 580D0205))
  (segment (start 113.792 90.35) (end 113.792 93.181) (width 0.8) (layer F.Cu) (net 8))
  (segment (start 113.665 93.091) (end 113.665 93.181) (width 0.8) (layer F.Cu) (net 8) (tstamp 580D0202))
  (segment (start 113.792 93.181) (end 113.702 93.091) (width 0.8) (layer F.Cu) (net 8) (tstamp 580D01FF))
  (segment (start 113.702 93.091) (end 113.665 93.091) (width 0.8) (layer F.Cu) (net 8) (tstamp 580D0201))
  (segment (start 108.585 97.79) (end 108.585 97.663) (width 0.8) (layer F.Cu) (net 8) (status 30))
  (segment (start 108.585 97.79) (end 109.093 97.79) (width 0.9) (layer F.Cu) (net 8) (status 30))
  (segment (start 147.394 91.059) (end 146.177 91.059) (width 0.8) (layer F.Cu) (net 9))
  (segment (start 146.177 91.059) (end 145.923 91.313) (width 0.8) (layer F.Cu) (net 9) (tstamp 580DACB0))
  (segment (start 145.923 94.361) (end 145.923 91.313) (width 0.8) (layer F.Cu) (net 9))
  (segment (start 141.462 84.058) (end 138.826 84.058) (width 0.8) (layer F.Cu) (net 9) (tstamp 580DAC1E))
  (segment (start 142.113 84.709) (end 141.462 84.058) (width 0.8) (layer F.Cu) (net 9) (tstamp 580DAC1C))
  (segment (start 142.113 87.503) (end 142.113 84.709) (width 0.8) (layer F.Cu) (net 9) (tstamp 580DAC1B))
  (segment (start 145.923 91.313) (end 142.113 87.503) (width 0.8) (layer F.Cu) (net 9) (tstamp 580DAC18))
  (segment (start 113.792 97.081) (end 113.792 98.081) (width 0.8) (layer F.Cu) (net 10))
  (segment (start 113.792 98.081) (end 113.792 100.965) (width 0.8) (layer F.Cu) (net 10) (tstamp 580DC0D7))
  (segment (start 113.792 98.081) (end 113.792 100.965) (width 0.8) (layer F.Cu) (net 10))
  (segment (start 147.574 82.804) (end 145.415 82.804) (width 0.8) (layer F.Cu) (net 11))
  (segment (start 142.225 76.058) (end 138.826 76.058) (width 0.8) (layer F.Cu) (net 11) (tstamp 580DAA6B))
  (segment (start 144.145 77.978) (end 142.225 76.058) (width 0.8) (layer F.Cu) (net 11) (tstamp 580DAA6A))
  (segment (start 144.145 81.534) (end 144.145 77.978) (width 0.8) (layer F.Cu) (net 11) (tstamp 580DAA69))
  (segment (start 145.415 82.804) (end 144.145 81.534) (width 0.8) (layer F.Cu) (net 11) (tstamp 580DAA68))
  (segment (start 115.951 75.946) (end 115.951 77.724) (width 0.8) (layer F.Cu) (net 12))
  (segment (start 113.792 79.883) (end 113.792 81.862) (width 0.8) (layer F.Cu) (net 12) (tstamp 580D0831))
  (segment (start 115.951 77.724) (end 113.792 79.883) (width 0.8) (layer F.Cu) (net 12) (tstamp 580D0830))
  (segment (start 115.824 76.073) (end 115.951 75.946) (width 0.8) (layer F.Cu) (net 12) (tstamp 580CFC53) (status 30))
  (segment (start 121.524 76.058) (end 115.331 76.058) (width 0.8) (layer F.Cu) (net 12) (status 20))
  (segment (start 147.574 85.344) (end 145.288 85.344) (width 0.8) (layer F.Cu) (net 13))
  (segment (start 141.431 78.058) (end 138.826 78.058) (width 0.8) (layer F.Cu) (net 13) (tstamp 580DAA65))
  (segment (start 142.113 78.74) (end 141.431 78.058) (width 0.8) (layer F.Cu) (net 13) (tstamp 580DAA64))
  (segment (start 142.113 82.169) (end 142.113 78.74) (width 0.8) (layer F.Cu) (net 13) (tstamp 580DAA63))
  (segment (start 145.288 85.344) (end 142.113 82.169) (width 0.8) (layer F.Cu) (net 13) (tstamp 580DAA62))
  (segment (start 138.906 77.978) (end 138.826 78.058) (width 0.8) (layer F.Cu) (net 13) (tstamp 580C6767) (status 30))
  (segment (start 121.524 80.058) (end 118.697 80.058) (width 0.8) (layer F.Cu) (net 14))
  (segment (start 117.221 81.534) (end 117.221 81.862) (width 0.8) (layer F.Cu) (net 14) (tstamp 580CE1DC) (status 30))
  (segment (start 118.697 80.058) (end 117.221 81.534) (width 0.8) (layer F.Cu) (net 14) (tstamp 580CE1DB) (status 20))
  (segment (start 109.093 84.582) (end 109.093 81.46) (width 0.8) (layer F.Cu) (net 15))
  (segment (start 134.874 95.811) (end 134.874 96.266) (width 0.8) (layer F.Cu) (net 16) (status 10))
  (segment (start 133.604 97.536) (end 131.699 97.536) (width 0.8) (layer F.Cu) (net 16) (tstamp 580DA93E))
  (segment (start 134.874 96.266) (end 133.604 97.536) (width 0.8) (layer F.Cu) (net 16) (tstamp 580DA93D))
  (segment (start 139.573 92.911) (end 139.573 92.837) (width 0.8) (layer F.Cu) (net 17))
  (segment (start 139.573 92.837) (end 138.938 92.202) (width 0.8) (layer F.Cu) (net 17) (tstamp 580DA9A4))
  (segment (start 138.938 92.202) (end 134.874 92.202) (width 0.8) (layer F.Cu) (net 17) (tstamp 580DA9A6))
  (segment (start 134.874 92.911) (end 134.874 92.202) (width 0.8) (layer F.Cu) (net 17))
  (segment (start 134.874 92.202) (end 134.874 89.281) (width 0.8) (layer F.Cu) (net 17) (tstamp 580DA980))
  (segment (start 134.874 89.281) (end 136.097 88.058) (width 0.8) (layer F.Cu) (net 17) (tstamp 580DA978))
  (segment (start 136.097 88.058) (end 138.826 88.058) (width 0.8) (layer F.Cu) (net 17) (tstamp 580DA97A))
  (segment (start 136.097 88.058) (end 138.826 88.058) (width 0.8) (layer F.Cu) (net 17) (tstamp 580CE333))
  (segment (start 138.926 87.958) (end 138.826 88.058) (width 0.8) (layer F.Cu) (net 17) (tstamp 580C76DC) (status 30))
  (segment (start 131.826 92.911) (end 131.826 89.154) (width 0.8) (layer F.Cu) (net 18) (status 10))
  (segment (start 128.73 86.058) (end 121.524 86.058) (width 0.8) (layer F.Cu) (net 18) (tstamp 580CFE88))
  (segment (start 131.826 89.154) (end 128.73 86.058) (width 0.8) (layer F.Cu) (net 18) (tstamp 580CFE87))
  (segment (start 131.699 99.441) (end 130.048 99.441) (width 0.8) (layer F.Cu) (net 19))
  (segment (start 129.995 95.811) (end 131.826 95.811) (width 0.8) (layer F.Cu) (net 19) (tstamp 580D0615))
  (segment (start 129.413 96.393) (end 129.995 95.811) (width 0.8) (layer F.Cu) (net 19) (tstamp 580D0614))
  (segment (start 129.413 98.806) (end 129.413 96.393) (width 0.8) (layer F.Cu) (net 19) (tstamp 580D0613))
  (segment (start 130.048 99.441) (end 129.413 98.806) (width 0.8) (layer F.Cu) (net 19) (tstamp 580D0611))
  (segment (start 131.699 100.076) (end 131.699 99.441) (width 0.8) (layer F.Cu) (net 19))
  (segment (start 131.699 99.441) (end 131.699 98.806) (width 0.8) (layer F.Cu) (net 19) (tstamp 580D05D7))
  (segment (start 134.62 94.361) (end 136.525 94.361) (width 0.8) (layer F.Cu) (net 20))
  (segment (start 133.35 101.346) (end 131.699 101.346) (width 0.8) (layer F.Cu) (net 20) (tstamp 580DA96C))
  (segment (start 137.287 97.409) (end 133.35 101.346) (width 0.8) (layer F.Cu) (net 20) (tstamp 580DA969))
  (segment (start 137.287 95.123) (end 137.287 97.409) (width 0.8) (layer F.Cu) (net 20) (tstamp 580DA968))
  (segment (start 136.525 94.361) (end 137.287 95.123) (width 0.8) (layer F.Cu) (net 20) (tstamp 580DA967))
  (segment (start 121.524 88.058) (end 127.047 88.058) (width 0.8) (layer F.Cu) (net 20))
  (segment (start 130.175 94.361) (end 134.62 94.361) (width 0.8) (layer F.Cu) (net 20) (tstamp 580D0C34))
  (segment (start 129.413 93.599) (end 130.175 94.361) (width 0.8) (layer F.Cu) (net 20) (tstamp 580D0C28))
  (segment (start 129.413 90.424) (end 129.413 93.599) (width 0.8) (layer F.Cu) (net 20) (tstamp 580D0C1F))
  (segment (start 127.047 88.058) (end 129.413 90.424) (width 0.8) (layer F.Cu) (net 20) (tstamp 580D0C1E))
  (segment (start 121.604 88.138) (end 121.524 88.058) (width 0.9) (layer F.Cu) (net 20) (tstamp 580BB35C) (status 30))
  (segment (start 109.093 118.618) (end 115.443 118.618) (width 2) (layer F.Cu) (net 21))
  (segment (start 132.842 129.413) (end 132.842 135.0645) (width 2) (layer F.Cu) (net 21) (tstamp 580D0AD1))
  (segment (start 130.302 126.873) (end 132.842 129.413) (width 2) (layer F.Cu) (net 21) (tstamp 580D0ACF))
  (segment (start 123.698 126.873) (end 130.302 126.873) (width 2) (layer F.Cu) (net 21) (tstamp 580D0ACD))
  (segment (start 115.443 118.618) (end 123.698 126.873) (width 2) (layer F.Cu) (net 21) (tstamp 580D0ACA))

)
